<?xml version="1.0" encoding="utf-8"?>
<!-- Generator: Adobe Illustrator 25.1.0, SVG Export Plug-In . SVG Version: 6.00 Build 0)  -->
<svg version="1.1" id="Layer_1" xmlns="http://www.w3.org/2000/svg" xmlns:xlink="http://www.w3.org/1999/xlink" x="0px" y="0px"
	 viewBox="0 0 595.28 841.89" style="enable-background:new 0 0 595.28 841.89;" xml:space="preserve">
<style type="text/css">
	.st0{fill:url(#SVGID_1_);}
	.st1{fill:url(#SVGID_2_);}
	.st2{fill:url(#SVGID_3_);}
	.st3{fill:url(#SVGID_4_);}
	.st4{fill:url(#SVGID_5_);}
	.st5{fill:url(#SVGID_6_);}
	.st6{fill:url(#SVGID_7_);}
	.st7{fill:url(#SVGID_8_);}
	.st8{fill:url(#SVGID_9_);}
	.st9{fill:url(#SVGID_10_);}
	.st10{fill:url(#SVGID_11_);}
	.st11{fill:url(#SVGID_12_);}
	.st12{fill:url(#SVGID_13_);}
	.st13{fill:#034EA2;}
	.st14{fill:url(#SVGID_14_);}
	.st15{fill:url(#SVGID_15_);}
	.st16{fill:url(#SVGID_16_);}
	.st17{fill:url(#SVGID_17_);}
	.st18{fill:url(#SVGID_18_);}
	.st19{fill:url(#SVGID_19_);}
	.st20{fill:url(#SVGID_20_);}
	.st21{fill:url(#SVGID_21_);}
	.st22{fill:url(#SVGID_22_);}
	.st23{fill:url(#SVGID_23_);}
	.st24{fill:url(#SVGID_24_);}
	.st25{fill:url(#SVGID_25_);}
	.st26{fill:url(#SVGID_26_);}
	.st27{fill:url(#SVGID_27_);}
	.st28{fill:url(#SVGID_28_);}
	.st29{fill:url(#SVGID_29_);}
	.st30{fill:url(#SVGID_30_);}
	.st31{fill:url(#SVGID_31_);}
	.st32{fill:url(#SVGID_32_);}
	.st33{fill:url(#SVGID_33_);}
	.st34{fill:url(#SVGID_34_);}
	.st35{fill:url(#SVGID_35_);}
	.st36{fill:url(#SVGID_36_);}
	.st37{fill:url(#SVGID_37_);}
	.st38{fill:url(#SVGID_38_);}
	.st39{fill:url(#SVGID_39_);}
	.st40{fill:url(#SVGID_40_);}
	.st41{fill:url(#SVGID_41_);}
	.st42{fill:url(#SVGID_42_);}
	.st43{fill:url(#SVGID_43_);}
	.st44{fill:url(#SVGID_44_);}
	.st45{fill:url(#SVGID_45_);}
	.st46{fill:url(#SVGID_46_);}
	.st47{fill:url(#SVGID_47_);}
	.st48{fill:url(#SVGID_48_);}
	.st49{fill:url(#SVGID_49_);}
	.st50{fill:url(#SVGID_50_);}
	.st51{fill:url(#SVGID_51_);}
	.st52{fill:url(#SVGID_52_);}
	.st53{fill:url(#SVGID_53_);}
	.st54{fill:url(#SVGID_54_);}
	.st55{fill:url(#SVGID_55_);}
	.st56{fill:url(#SVGID_56_);}
	.st57{fill:url(#SVGID_57_);}
	.st58{fill:url(#SVGID_58_);}
	.st59{fill:url(#SVGID_59_);}
	.st60{fill:url(#SVGID_60_);}
	.st61{fill:url(#SVGID_61_);}
	.st62{fill:url(#SVGID_62_);}
	.st63{fill:url(#SVGID_63_);}
	.st64{fill:url(#SVGID_64_);}
	.st65{fill:url(#SVGID_65_);}
	.st66{fill:url(#SVGID_66_);}
	.st67{fill:url(#SVGID_67_);}
	.st68{fill:url(#SVGID_68_);}
	.st69{fill:url(#SVGID_69_);}
	.st70{fill:url(#SVGID_70_);}
	.st71{fill:url(#SVGID_71_);}
	.st72{fill:url(#SVGID_72_);}
	.st73{fill:none;stroke:url(#SVGID_73_);stroke-width:0.4228;stroke-miterlimit:10;}
	.st74{fill:url(#SVGID_74_);}
	.st75{fill:url(#SVGID_75_);}
	.st76{fill:url(#SVGID_76_);}
	.st77{fill:url(#SVGID_77_);}
	.st78{fill:url(#SVGID_78_);}
	.st79{fill:url(#SVGID_79_);}
	.st80{fill:url(#SVGID_80_);}
	.st81{fill:url(#SVGID_81_);}
	.st82{fill:url(#SVGID_82_);}
	.st83{fill:url(#SVGID_83_);}
	.st84{fill:url(#SVGID_84_);}
</style>
<g>
	<linearGradient id="SVGID_1_" gradientUnits="userSpaceOnUse" x1="28.4272" y1="49.4318" x2="65.3853" y2="49.4318">
		<stop  offset="0" style="stop-color:#2E3192"/>
		<stop  offset="1" style="stop-color:#00AEEF"/>
	</linearGradient>
	<path class="st0" d="M59.77,43.75c1.85,2.24,3.7,4.48,5.62,6.8c-0.6,0.1-1.11,0.2-1.63,0.28c-3.99,0.61-7.98,1.2-11.96,1.81
		c-3.76,0.57-7.53,1.16-11.29,1.74c-1.62,0.25-3.23,0.51-4.85,0.73c-0.2,0.03-0.49-0.14-0.64-0.31c-1.88-2.15-3.74-4.32-5.61-6.48
		c-0.31-0.35-0.61-0.71-0.98-1.14c0.91-0.1,1.73-0.2,2.55-0.29c2.47-0.27,4.95-0.53,7.42-0.8c2.11-0.23,4.22-0.44,6.33-0.67
		c2.44-0.26,4.88-0.54,7.32-0.8c2.37-0.26,4.74-0.51,7.11-0.77c0.17-0.02,0.33-0.07,0.5-0.11C59.7,43.75,59.73,43.75,59.77,43.75z"
		/>
	<linearGradient id="SVGID_2_" gradientUnits="userSpaceOnUse" x1="36.2503" y1="84.2179" x2="72.5694" y2="84.2179">
		<stop  offset="0" style="stop-color:#F58220"/>
		<stop  offset="1" style="stop-color:#FFC709"/>
	</linearGradient>
	<path class="st1" d="M36.27,64.01c2.56,1.19,5.06,2.36,7.56,3.53c5.15,2.4,10.3,4.8,15.45,7.19c0.26,0.12,0.61,0.16,0.89,0.1
		c3.99-0.79,7.97-1.61,11.95-2.42c0.03-0.01,0.07,0.01,0.18,0.02c0.09,10.64,0.18,21.28,0.27,32.01c-0.21-0.11-0.35-0.17-0.47-0.25
		c-11.04-6.68-22.09-13.35-33.13-20.04c-0.2-0.12-0.38-0.41-0.41-0.65c-0.45-3.64-0.87-7.28-1.3-10.93
		c-0.33-2.78-0.68-5.56-1.02-8.33C36.25,64.18,36.26,64.13,36.27,64.01z"/>
	<linearGradient id="SVGID_3_" gradientUnits="userSpaceOnUse" x1="73.5352" y1="87.7809" x2="107.4476" y2="87.7809">
		<stop  offset="0" style="stop-color:#F58220"/>
		<stop  offset="1" style="stop-color:#FFC709"/>
	</linearGradient>
	<path class="st2" d="M107.45,71.06c-0.33,1.84-0.65,3.64-0.97,5.45c-0.71,4-1.43,8-2.14,12c-0.22,1.23-0.42,2.47-0.67,3.69
		c-0.04,0.21-0.25,0.47-0.45,0.54c-9.74,3.89-19.5,7.76-29.25,11.63c-0.13,0.05-0.26,0.08-0.44,0.14c0-10.78,0-21.51,0-32.31
		c0.92,0.21,1.84,0.42,2.76,0.64c3.53,0.83,7.06,1.69,10.6,2.48c0.49,0.11,1.06-0.05,1.57-0.16c6.23-1.36,12.45-2.73,18.68-4.1
		C107.23,71.04,107.32,71.06,107.45,71.06z"/>
	<linearGradient id="SVGID_4_" gradientUnits="userSpaceOnUse" x1="66.6446" y1="53.2774" x2="119.7425" y2="53.2774">
		<stop  offset="0" style="stop-color:#2E3192"/>
		<stop  offset="1" style="stop-color:#00AEEF"/>
	</linearGradient>
	<path class="st3" d="M119.74,55.19c-1.11,0.65-2.16,1.25-3.21,1.87c-2.46,1.44-4.92,2.88-7.4,4.3c-0.23,0.13-0.57,0.18-0.82,0.12
		c-13.72-3.46-27.44-6.93-41.15-10.4c-0.15-0.04-0.29-0.09-0.52-0.15c0.31-0.19,0.56-0.34,0.81-0.48c2.93-1.74,5.85-3.49,8.79-5.22
		c0.24-0.14,0.6-0.19,0.87-0.13c9.64,2.26,19.27,4.54,28.9,6.82c4.44,1.05,8.89,2.1,13.33,3.15
		C119.46,55.07,119.56,55.12,119.74,55.19z"/>
	<linearGradient id="SVGID_5_" gradientUnits="userSpaceOnUse" x1="22.6624" y1="62.2855" x2="72.105" y2="62.2855">
		<stop  offset="0" style="stop-color:#2E3192"/>
		<stop  offset="1" style="stop-color:#00AEEF"/>
	</linearGradient>
	<path class="st4" d="M72.1,70.56c-1.38,0.33-2.76,0.66-4.14,0.98c-2.64,0.61-5.28,1.22-7.92,1.81c-0.25,0.06-0.56,0.05-0.79-0.05
		C47.18,68,35.13,62.69,23.08,57.38c-0.14-0.06-0.28-0.13-0.42-0.3c0.73-0.09,1.45-0.18,2.18-0.26c2.28-0.27,4.56-0.53,6.84-0.79
		c1.02-0.12,2.04-0.26,3.06-0.34c0.3-0.03,0.62,0.05,0.9,0.16c9.73,3.88,19.45,7.78,29.17,11.67c0.14,0.06,0.29,0.11,0.52,0.21
		c0.2-5.55,0.39-11.04,0.59-16.53c0.06,0,0.12-0.01,0.18-0.01c0.02,0.12,0.06,0.23,0.06,0.35c-0.13,3.76-0.26,7.52-0.38,11.28
		c-0.05,1.51-0.09,3.03-0.16,4.54c-0.02,0.37,0.1,0.54,0.45,0.67c1.89,0.74,3.77,1.51,5.66,2.27c0.13,0.05,0.25,0.11,0.38,0.16
		C72.1,70.49,72.1,70.53,72.1,70.56z"/>
	<linearGradient id="SVGID_6_" gradientUnits="userSpaceOnUse" x1="73.6109" y1="68.1327" x2="124.8744" y2="68.1327">
		<stop  offset="0" style="stop-color:#2E3192"/>
		<stop  offset="1" style="stop-color:#00AEEF"/>
	</linearGradient>
	<path class="st5" d="M124.87,65.66c-1.34,0.31-2.55,0.59-3.77,0.87c-6.03,1.38-12.06,2.75-18.09,4.12
		c-4.95,1.13-9.89,2.28-14.84,3.37c-0.47,0.1-1.02-0.06-1.52-0.17c-4.22-0.97-8.43-1.96-12.64-2.94c-0.12-0.03-0.22-0.08-0.4-0.15
		c4.58-1.12,9.08-2.22,13.59-3.32c7.09-1.74,14.17-3.48,21.26-5.21c0.19-0.05,0.41-0.05,0.6-0.01c5.08,1.09,10.16,2.18,15.24,3.28
		C124.45,65.54,124.6,65.59,124.87,65.66z"/>
</g>
<g>
	<linearGradient id="SVGID_7_" gradientUnits="userSpaceOnUse" x1="198.6263" y1="56.8743" x2="227.7902" y2="56.8743">
		<stop  offset="0" style="stop-color:#2E3192"/>
		<stop  offset="1" style="stop-color:#00AEEF"/>
	</linearGradient>
	<path class="st6" d="M227.79,67.79c-0.2,0.55-0.33,1.14-0.63,1.63c-0.8,1.32-2,2.04-3.56,2.04c-6.95,0.01-13.91-0.01-20.86,0.01
		c-2.15,0.01-4.11-1.84-4.11-4.16c0-6.94,0-13.89,0-20.83c0-2.04,1.45-3.79,3.45-4.17c0.29-0.05,0.59-0.04,0.88-0.04
		c6.8,0,13.6,0,20.4,0c2.28,0,3.92,1.35,4.38,3.59c0.01,0.03,0.03,0.05,0.05,0.08C227.79,53.23,227.79,60.51,227.79,67.79z
		 M203.07,46.74c0,6.78,0,13.55,0,20.3c6.79,0,13.55,0,20.31,0c0-6.78,0-13.53,0-20.3C216.61,46.74,209.86,46.74,203.07,46.74z"/>
	<linearGradient id="SVGID_8_" gradientUnits="userSpaceOnUse" x1="198.626" y1="91.8065" x2="227.7902" y2="91.8065">
		<stop  offset="0" style="stop-color:#F58220"/>
		<stop  offset="1" style="stop-color:#FFC709"/>
	</linearGradient>
	<path class="st7" d="M227.79,102.91c-0.05,0.17-0.09,0.35-0.14,0.52c-0.47,1.65-2.07,2.91-3.79,2.94
		c-1.51,0.03-3.03,0.01-4.54,0.01c-5.48,0-10.96-0.01-16.44,0c-1.59,0-2.82-0.63-3.67-1.97c-0.39-0.61-0.57-1.29-0.57-2.01
		c0-6.94,0-13.88,0-20.83c0-1.99,1.46-3.85,3.35-4.27c0.3-0.07,0.63-0.08,0.94-0.08c6.83,0,13.66,0.02,20.5-0.01
		c2.31-0.01,3.98,1.87,4.31,3.67c0.02,0.08,0.04,0.17,0.07,0.25C227.79,88.39,227.79,95.65,227.79,102.91z M223.38,81.61
		c-6.78,0-13.54,0-20.31,0c0,6.81,0,13.61,0,20.4c6.79,0,13.55,0,20.31,0C223.38,95.2,223.38,88.42,223.38,81.61z"/>
	<linearGradient id="SVGID_9_" gradientUnits="userSpaceOnUse" x1="163.6965" y1="56.8692" x2="192.8098" y2="56.8692">
		<stop  offset="0" style="stop-color:#F58220"/>
		<stop  offset="1" style="stop-color:#FFC709"/>
	</linearGradient>
	<path class="st8" d="M178.23,42.27c3.42,0,6.84,0.05,10.26-0.02c2.27-0.04,4.01,1.68,4.29,3.65c0.03,0.2,0.03,0.41,0.03,0.62
		c0,6.92,0,13.84,0,20.76c0,2.07-1.39,3.75-3.42,4.13c-0.26,0.05-0.54,0.05-0.81,0.05c-6.89,0-13.77-0.03-20.66,0.02
		c-2.41,0.02-4.22-2-4.21-4.25c0.02-6.93,0.01-13.86,0.01-20.79c0-2,1.42-3.73,3.38-4.11c0.29-0.06,0.59-0.05,0.88-0.05
		C171.39,42.27,174.81,42.27,178.23,42.27z"/>
	<linearGradient id="SVGID_10_" gradientUnits="userSpaceOnUse" x1="163.7042" y1="91.8073" x2="192.8213" y2="91.8073">
		<stop  offset="0" style="stop-color:#2E3192"/>
		<stop  offset="1" style="stop-color:#00AEEF"/>
	</linearGradient>
	<path class="st9" d="M178.22,106.39c-3.47,0-6.93-0.02-10.4,0.01c-1.88,0.02-3.47-1.2-3.94-2.84c-0.1-0.36-0.17-0.75-0.17-1.12
		c-0.01-6.96-0.01-13.93-0.01-20.89c0-1.97,1.45-3.82,3.3-4.23c0.3-0.07,0.63-0.08,0.94-0.08c6.84,0,13.69,0.02,20.53-0.02
		c2.4-0.01,3.95,1.9,4.25,3.61c0.05,0.3,0.07,0.61,0.07,0.91c0,6.84-0.02,13.69,0.01,20.53c0.01,1.9-1.31,3.75-3.45,4.08
		c-0.29,0.05-0.59,0.04-0.88,0.04C185.07,106.39,181.65,106.39,178.22,106.39z M188.44,101.99c0-6.81,0-13.59,0-20.37
		c-6.8,0-13.57,0-20.34,0c0,6.8,0,13.58,0,20.37C174.89,101.99,181.65,101.99,188.44,101.99z"/>
</g>
<g>
	<linearGradient id="SVGID_11_" gradientUnits="userSpaceOnUse" x1="274.4331" y1="70.9232" x2="340.8442" y2="70.9232">
		<stop  offset="0" style="stop-color:#F58220"/>
		<stop  offset="1" style="stop-color:#FFC709"/>
	</linearGradient>
	<path class="st10" d="M308.49,32.84c0.52,0.1,1.04,0.18,1.55,0.3c1.01,0.22,1.94,0.62,2.82,1.15c7.63,4.58,15.26,9.15,22.88,13.73
		c2.77,1.66,4.42,4.11,4.96,7.29c0.1,0.56,0.11,1.13,0.11,1.7c0.01,7.84,0,15.67,0.02,23.51c0,1.07-0.66,1.86-1.59,2.05
		c-1.1,0.22-2.16-0.65-2.23-1.82c-0.01-0.14,0-0.28,0-0.43c0-7.76,0-15.52,0-23.28c0-2.53-1.09-4.46-3.25-5.76
		c-3.54-2.14-7.09-4.26-10.64-6.39c-3.99-2.39-7.98-4.79-11.97-7.18c-2.35-1.41-4.69-1.42-7.04-0.01
		c-7.54,4.52-15.08,9.04-22.61,13.57c-2.16,1.3-3.27,3.22-3.27,5.75c0,9.28,0,18.55,0,27.83c0,2.55,1.12,4.47,3.29,5.77
		c7.52,4.52,15.05,9.03,22.58,13.55c2.33,1.4,4.67,1.41,7.01,0.02c6-3.57,12-7.14,18-10.71c1.59-0.95,3.18-1.89,4.77-2.83
		c0.54-0.32,1.1-0.57,1.76-0.36c0.72,0.22,1.19,0.7,1.34,1.42c0.15,0.74-0.05,1.42-0.69,1.85c-1.08,0.71-2.19,1.38-3.29,2.04
		c-6.66,3.97-13.33,7.93-19.99,11.9c-1.76,1.05-3.65,1.58-5.69,1.51c-1.8-0.06-3.48-0.57-5.03-1.5
		c-7.57-4.55-15.14-9.09-22.71-13.63c-2.64-1.58-4.29-3.88-4.93-6.88c-0.12-0.58-0.19-1.18-0.19-1.77
		c-0.01-9.53-0.05-19.07,0.01-28.6c0.02-3.52,1.62-6.37,4.57-8.27c3.18-2.05,6.48-3.93,9.72-5.88c4.51-2.71,9.02-5.42,13.53-8.12
		c1.31-0.79,2.73-1.29,4.26-1.44c0.08-0.01,0.15-0.04,0.22-0.07C307.35,32.84,307.92,32.84,308.49,32.84z"/>
	<linearGradient id="SVGID_12_" gradientUnits="userSpaceOnUse" x1="286.9839" y1="70.1688" x2="328.2761" y2="70.1688">
		<stop  offset="0" style="stop-color:#2E3192"/>
		<stop  offset="1" style="stop-color:#00AEEF"/>
	</linearGradient>
	<path class="st11" d="M325.6,64.12c-0.04,4.37-1.16,7.87-3.41,11c-0.18,0.25-0.18,0.42-0.02,0.68c1.91,3.03,3.81,6.07,5.71,9.1
		c0.46,0.72,0.53,1.46,0.06,2.19c-0.45,0.7-1.13,0.96-1.95,0.84c-1.23-0.18-2.45-0.39-3.67-0.59c-1.08-0.17-1.96,0.4-2.26,1.48
		c-0.32,1.12-0.63,2.24-0.94,3.36c-0.22,0.8-0.74,1.31-1.56,1.43c-0.85,0.13-1.51-0.21-1.97-0.95c-2.03-3.25-4.07-6.49-6.08-9.74
		c-0.18-0.29-0.36-0.36-0.68-0.35c-0.85,0.03-1.71,0.02-2.56,0c-0.26-0.01-0.39,0.08-0.52,0.28c-2.03,3.25-4.06,6.49-6.09,9.73
		c-0.64,1.02-1.66,1.33-2.62,0.81c-0.48-0.26-0.78-0.67-0.92-1.19c-0.31-1.11-0.62-2.21-0.93-3.32c-0.34-1.22-1.18-1.73-2.43-1.52
		c-1.18,0.2-2.37,0.39-3.56,0.56c-0.8,0.11-1.46-0.16-1.9-0.85c-0.45-0.7-0.41-1.41,0.03-2.12c1.73-2.76,3.46-5.52,5.19-8.29
		c0.2-0.32,0.38-0.65,0.6-0.95c0.15-0.21,0.12-0.35-0.02-0.54c-1.45-1.99-2.43-4.19-3-6.58c-1.61-6.82,1.18-14.31,6.85-18.42
		c2.45-1.78,5.17-2.94,8.17-3.33c5.11-0.66,9.73,0.58,13.76,3.82c3.5,2.81,5.63,6.46,6.43,10.88
		C325.5,62.57,325.55,63.6,325.6,64.12z M298.64,87.06c0.12-0.18,0.2-0.3,0.28-0.42c1.64-2.61,3.28-5.21,4.89-7.83
		c0.21-0.35,0.43-0.38,0.78-0.33c0.73,0.12,1.46,0.23,2.19,0.29c1.35,0.09,2.69-0.02,4.01-0.3c0.29-0.06,0.45,0.01,0.62,0.27
		c1.63,2.64,3.29,5.27,4.93,7.9c0.08,0.13,0.16,0.25,0.28,0.42c0.24-0.86,0.45-1.64,0.68-2.42c0.37-1.28,1.2-1.78,2.52-1.55
		c0.87,0.15,1.75,0.27,2.71,0.42c-1.78-2.84-3.52-5.62-5.26-8.4c6.51-6.33,5.37-15.58,0.35-20.53c-5.1-5.03-13.34-5.56-19.04-0.82
		c-2.83,2.36-4.54,5.39-4.99,9.05c-0.6,4.81,1.02,8.87,4.4,12.27c-1.76,2.82-3.5,5.59-5.28,8.43c1-0.16,1.89-0.29,2.78-0.44
		c1.23-0.22,2.09,0.31,2.44,1.53C298.17,85.4,298.4,86.19,298.64,87.06z"/>
	<linearGradient id="SVGID_13_" gradientUnits="userSpaceOnUse" x1="297.3482" y1="63.6271" x2="317.9091" y2="63.6271">
		<stop  offset="0" style="stop-color:#FFC709"/>
		<stop  offset="1" style="stop-color:#F58220"/>
	</linearGradient>
	<path class="st12" d="M317.91,61.76c0.02,0.59-0.24,1.04-0.65,1.44c-0.84,0.82-1.68,1.65-2.54,2.46c-0.58,0.55-0.81,1.19-0.66,2
		c0.23,1.18,0.42,2.37,0.61,3.55c0.13,0.78-0.1,1.44-0.74,1.92c-0.63,0.46-1.32,0.51-2.01,0.15c-1.1-0.57-2.2-1.14-3.29-1.73
		c-0.69-0.37-1.35-0.35-2.03,0.01c-1.09,0.59-2.18,1.18-3.29,1.73c-1.14,0.57-2.52-0.07-2.7-1.3c-0.08-0.54,0.05-1.13,0.14-1.69
		c0.15-0.96,0.34-1.91,0.49-2.86c0.1-0.64-0.11-1.2-0.57-1.66c-0.9-0.88-1.81-1.74-2.7-2.63c-0.91-0.9-0.82-2.38,0.24-2.97
		c0.47-0.27,1.07-0.34,1.62-0.43c0.95-0.17,1.92-0.28,2.88-0.42c0.73-0.11,1.25-0.5,1.58-1.17c0.54-1.12,1.08-2.23,1.65-3.33
		c0.57-1.11,1.92-1.42,2.86-0.67c0.25,0.2,0.46,0.5,0.61,0.79c0.54,1.04,1.06,2.1,1.56,3.16c0.37,0.77,0.97,1.15,1.82,1.26
		c1.2,0.15,2.41,0.33,3.6,0.54C317.31,60.05,317.91,60.81,317.91,61.76z M307.63,59.96c-0.31,0.64-0.58,1.19-0.86,1.74
		c-0.31,0.6-0.79,0.98-1.46,1.08c-0.63,0.1-1.27,0.2-1.9,0.29c0.4,0.42,0.77,0.86,1.19,1.24c0.65,0.6,0.83,1.3,0.66,2.15
		c-0.11,0.53-0.18,1.07-0.28,1.68c0.51-0.27,0.97-0.48,1.4-0.75c0.85-0.53,1.67-0.52,2.51,0c0.43,0.26,0.89,0.47,1.39,0.73
		c-0.09-0.57-0.14-1.08-0.26-1.56c-0.24-0.99,0.04-1.77,0.8-2.42c0.37-0.31,0.68-0.69,1.05-1.07c-0.53-0.08-1.03-0.17-1.53-0.22
		c-0.93-0.09-1.6-0.5-1.98-1.38C308.17,60.98,307.91,60.52,307.63,59.96z"/>
</g>
<g>
	<path class="st13" d="M413.66,51.84v6.63h23.43v-6.63H413.66z M441.14,62.36v23.43h6.63V62.36H441.14z M409.77,89.83V62.36h-6.63
		v34.1h33.94v-6.63H409.77z"/>
	<linearGradient id="SVGID_14_" gradientUnits="userSpaceOnUse" x1="393.5584" y1="55.1527" x2="419.3541" y2="55.1527">
		<stop  offset="0" style="stop-color:#F58220"/>
		<stop  offset="1" style="stop-color:#FFC709"/>
	</linearGradient>
	<path class="st14" d="M393.56,42.25v25.8h25.8v-25.8H393.56z M412.77,61.46h-12.62V48.84h12.62V61.46z"/>
	<linearGradient id="SVGID_15_" gradientUnits="userSpaceOnUse" x1="431.3949" y1="55.1527" x2="457.1966" y2="55.1527">
		<stop  offset="0" style="stop-color:#F58220"/>
		<stop  offset="1" style="stop-color:#FFC709"/>
	</linearGradient>
	<path class="st15" d="M431.39,42.25v25.8h25.8v-25.8H431.39z M450.61,61.46h-12.62V48.84h12.62V61.46z"/>
	<linearGradient id="SVGID_16_" gradientUnits="userSpaceOnUse" x1="431.3949" y1="92.9952" x2="457.1966" y2="92.9952">
		<stop  offset="0" style="stop-color:#F58220"/>
		<stop  offset="1" style="stop-color:#FFC709"/>
	</linearGradient>
	<path class="st16" d="M431.39,80.1v25.8h25.8V80.1H431.39z M450.61,99.3h-12.62V86.68h12.62V99.3z"/>
	<linearGradient id="SVGID_17_" gradientUnits="userSpaceOnUse" x1="393.5569" y1="92.7004" x2="419.3536" y2="92.7004">
		<stop  offset="0" style="stop-color:#F58220"/>
		<stop  offset="1" style="stop-color:#FFC709"/>
	</linearGradient>
	<path class="st17" d="M419.35,105.6h-25.8V79.8h25.8V105.6z"/>
</g>
<g>
	<linearGradient id="SVGID_18_" gradientUnits="userSpaceOnUse" x1="501.7846" y1="71.5134" x2="566.4373" y2="71.5134">
		<stop  offset="0" style="stop-color:#2E3192"/>
		<stop  offset="1" style="stop-color:#00AEEF"/>
	</linearGradient>
	<path class="st18" d="M533.98,108.34c-9.96-4.81-19.9-9.66-29.89-14.39c-1.69-0.8-2.32-1.76-2.31-3.65
		c0.09-10.1,0.08-20.2,0.01-30.29c-0.01-1.68,0.59-2.56,2.07-3.24c4.47-2.06,8.86-4.26,13.32-6.34c1.09-0.51,1.61-1.06,1.78-2.39
		c0.99-7.83,7.44-13.42,15.16-13.34c7.84,0.08,14.04,5.8,15.04,13.76c0.08,0.61,0.72,1.36,1.29,1.65c4.67,2.33,9.37,4.62,14.11,6.81
		c1.39,0.64,1.88,1.52,1.87,3c-0.04,10.28-0.04,20.57,0,30.85c0.01,1.51-0.58,2.33-1.92,2.97c-9.88,4.7-19.72,9.46-29.58,14.21
		c-0.21,0.1-0.39,0.26-0.58,0.4C534.23,108.34,534.1,108.34,533.98,108.34z M563.05,61.68c-0.53,0.15-0.77,0.19-0.98,0.29
		c-8.42,4.04-16.86,8.06-25.24,12.18c-0.55,0.27-1,1.32-1.01,2.01c-0.07,7.45-0.04,14.9-0.04,22.35c0,1.65,0,3.3,0,5.06
		c0.41-0.07,0.66-0.07,0.87-0.16c8.48-4.07,16.97-8.12,25.41-12.27c0.51-0.25,0.94-1.23,0.95-1.88c0.08-4.62,0.04-9.24,0.04-13.85
		C563.05,70.93,563.05,66.44,563.05,61.68z M505.27,61.57c-0.07,0.43-0.13,0.61-0.13,0.79c-0.01,9.05,0.02,18.09-0.04,27.14
		c-0.01,1.09,0.51,1.48,1.35,1.88c8.14,3.9,16.27,7.83,24.41,11.74c0.46,0.22,0.97,0.35,1.61,0.58c0-9.52,0.01-18.81-0.02-28.1
		c0-0.41-0.25-1.03-0.57-1.21c-1.72-0.91-3.49-1.72-5.45-2.66c-0.04,0.85-0.1,1.44-0.1,2.03c-0.01,3.88,0.06,7.76-0.05,11.63
		c-0.02,0.85-0.41,2.06-1.04,2.46c-1.09,0.69-1.84-0.35-2.49-1.23c-1.76-2.42-3.56-4.8-5.36-7.22c-1.26,0.7-2.33,1.31-3.4,1.9
		c-2.47,1.36-3.4,0.84-3.41-1.93c-0.02-4.62,0.03-9.23-0.04-13.85c-0.01-0.62-0.34-1.5-0.81-1.79
		C508.38,62.92,506.89,62.34,505.27,61.57z M533.92,38.03c-6.57,0.03-11.81,5.31-11.78,11.87c0.03,6.47,5.49,11.87,11.94,11.8
		c6.52-0.07,11.79-5.43,11.76-11.96C545.81,43.2,540.53,38.01,533.92,38.03z M528.43,68.97c1.56,0.75,2.73,1.18,3.75,1.84
		c1.36,0.89,2.5,0.66,3.89-0.03c7.55-3.71,15.16-7.3,22.75-10.95c0.57-0.27,1.1-0.61,1.91-1.06c-4.1-1.97-7.9-3.8-11.78-5.66
		c-0.22,0.58-0.4,1.03-0.56,1.49c-1.64,4.63-4.81,7.7-9.36,9.54C535.56,65.55,532.21,67.24,528.43,68.97z M514.1,65.81
		c0,3.94,0,7.67,0,11.57c0.74-0.39,1.28-0.66,1.81-0.95c2.32-1.29,2.49-1.25,4.06,0.84c0.89,1.18,1.78,2.36,2.99,3.96
		c0-3.84,0.02-7.1-0.03-10.35c-0.01-0.38-0.35-0.94-0.68-1.11C519.58,68.42,516.88,67.15,514.1,65.81z M507.33,58.81
		c1.32,0.64,2.22,1.13,3.17,1.51c0.71,0.28,1.63,0.79,2.18,0.55c2.67-1.13,5.25-2.49,7.87-3.76c-0.53-1.41-0.99-2.6-1.49-3.92
		C515.25,55.02,511.51,56.81,507.33,58.81z M529.55,64.81c-2.12-1.47-4.26-2.96-6.42-4.42c-0.3-0.2-0.81-0.37-1.08-0.25
		c-1.94,0.88-3.85,1.84-5.96,2.87c1.56,0.76,2.87,1.41,4.18,2.05c4.7,2.26,4.7,2.25,9.33-0.29
		C529.65,64.73,529.68,64.68,529.55,64.81z"/>
	<linearGradient id="SVGID_19_" gradientUnits="userSpaceOnUse" x1="539.0239" y1="93.2375" x2="554.5277" y2="93.2375">
		<stop  offset="0" style="stop-color:#F58220"/>
		<stop  offset="1" style="stop-color:#FFC709"/>
	</linearGradient>
	<path class="st19" d="M540.35,97.91c-0.4-0.37-1.19-0.77-1.3-1.31c-0.12-0.55,0.24-1.5,0.7-1.82c1.1-0.76,2.38-1.25,3.59-1.83
		c2.76-1.33,5.52-2.64,8.28-3.98c1.04-0.51,2.06-0.7,2.68,0.52c0.63,1.22-0.12,1.95-1.17,2.45c-3.81,1.83-7.61,3.66-11.42,5.49
		C541.38,97.57,541.02,97.67,540.35,97.91z"/>
	<linearGradient id="SVGID_20_" gradientUnits="userSpaceOnUse" x1="539.0395" y1="88.0503" x2="548.6119" y2="88.0503">
		<stop  offset="0" style="stop-color:#F58220"/>
		<stop  offset="1" style="stop-color:#FFC709"/>
	</linearGradient>
	<path class="st20" d="M547.11,84.75c0.6,0.5,1.38,0.85,1.47,1.33c0.12,0.59-0.14,1.64-0.57,1.88c-2.26,1.24-4.59,2.36-6.97,3.34
		c-0.47,0.19-1.47-0.24-1.83-0.69c-0.28-0.35-0.19-1.58,0.12-1.75C541.81,87.43,544.39,86.16,547.11,84.75z"/>
	<linearGradient id="SVGID_21_" gradientUnits="userSpaceOnUse" x1="528.687" y1="49.9288" x2="540.0222" y2="49.9288">
		<stop  offset="0" style="stop-color:#F58220"/>
		<stop  offset="1" style="stop-color:#FFC709"/>
	</linearGradient>
	<path class="st21" d="M535.88,60.15c-0.91,0-1.82,0-2.73,0c0.08-0.13,0.17-0.26,0.25-0.39c-0.73-0.6-1.39-1.33-2.2-1.77
		c-1.73-0.94-2.52-2.31-2.33-4.62c0.96,0,1.92,0,2.89,0c0.61,1.58,2.64,2.47,4.05,1.57c0.49-0.32,0.69-1.33,0.7-2.04
		c0.01-0.37-0.59-0.97-1.03-1.1c-1.11-0.33-2.29-0.41-3.43-0.65c-2.42-0.51-3.2-1.5-3.34-3.89c-0.16-2.78,0.45-4.99,3.52-5.87
		c0.41-0.12,0.6-1,0.98-1.68c0.76,0,1.72,0,2.69,0c-0.09,0.12-0.17,0.24-0.26,0.36c0.66,0.61,1.25,1.33,1.99,1.8
		c1.67,1.07,2.44,2.49,2.2,4.56c-1.01,0-1.91,0-2.85,0c-0.78-1.57-2.36-2.31-4.04-1.63c-0.45,0.18-0.81,1.12-0.81,1.72
		c0,0.48,0.49,1.22,0.93,1.39c0.9,0.34,1.92,0.39,2.89,0.54c2.19,0.34,3.56,1.43,3.89,3.1c0.59,2.91-0.26,5.13-2.25,6.34
		c-0.71,0.43-1.24,1.16-1.85,1.75C535.79,59.81,535.83,59.98,535.88,60.15z"/>
</g>
<g>
	<linearGradient id="SVGID_22_" gradientUnits="userSpaceOnUse" x1="46.1167" y1="175.8455" x2="105.5793" y2="175.8455">
		<stop  offset="0" style="stop-color:#F58220"/>
		<stop  offset="1" style="stop-color:#FFC709"/>
	</linearGradient>
	<path class="st22" d="M76.73,165.06c4.74-4.89,9.48-9.78,14.08-14.53c4.99,4.85,9.88,9.6,14.77,14.35
		c-0.03,0.08-0.07,0.15-0.1,0.23c-0.45,0-0.91,0-1.36,0c-0.77,0-1.54,0-2.31,0c-1.04,0.01-1.29,0.19-1.57,1.22
		c-1.58,5.95-4.18,11.43-7.7,16.47c-5.05,7.24-11.64,12.57-19.95,15.67c-3.21,1.2-6.54,1.97-9.96,2.34
		c-5.76,0.61-10.88,0.43-16.52-0.67c0.81-0.08,1.62-0.15,2.42-0.23c5.07-0.51,9.94-1.74,14.54-3.95c7.48-3.59,12.91-9.23,16.6-16.61
		c2.02-4.03,3.36-8.3,4.27-12.71c0.21-1-0.3-1.66-1.31-1.67c-1.9-0.02-3.81-0.01-5.71-0.01c-0.13,0-0.25-0.03-0.38-0.04
		C76.6,164.97,76.67,165.02,76.73,165.06z"/>
	<linearGradient id="SVGID_23_" gradientUnits="userSpaceOnUse" x1="42.7816" y1="168.984" x2="68.2224" y2="168.984">
		<stop  offset="0" style="stop-color:#2E3192"/>
		<stop  offset="1" style="stop-color:#00AEEF"/>
	</linearGradient>
	<path class="st23" d="M55.43,181.78c-7.08-0.04-12.69-5.87-12.65-13.16c0.03-6.78,5.86-12.46,12.73-12.43
		c7.07,0.04,12.75,5.83,12.71,12.96C68.19,176.16,62.46,181.81,55.43,181.78z M54.84,175.08c-1.38-0.52-1.96-1.55-2.3-2.78
		c-0.18-0.64-0.59-1.01-1.25-1.07c-0.63-0.06-1.16,0.2-1.38,0.77c-0.17,0.43-0.25,0.99-0.13,1.43c0.65,2.31,2.27,3.58,4.59,3.96
		c0.52,0.09,0.66,0.28,0.65,0.78c-0.03,1.3-0.01,1.3,1.27,1.2c0.06,0,0.12-0.04,0.25-0.09c0-0.23,0.02-0.48,0-0.72
		c-0.06-0.54,0.08-0.8,0.69-0.9c0.61-0.09,1.23-0.33,1.79-0.61c1.77-0.88,2.64-2.39,2.67-4.33c0.03-1.95-0.59-3.64-2.56-4.47
		c-0.82-0.35-1.69-0.61-2.54-0.91c0-1.51,0-3.03,0-4.74c0.46,0.39,0.86,0.62,1.12,0.97c0.28,0.37,0.42,0.84,0.63,1.27
		c0.39,0.76,1.05,1.07,1.72,0.82c0.81-0.3,1.21-1.01,0.98-1.83c-0.39-1.41-1.25-2.46-2.62-3.01c-0.64-0.26-1.33-0.39-2.06-0.6
		c0-0.57,0-1.15,0-1.71c-0.52,0-0.98,0-1.51,0c0,0.4-0.03,0.74,0.01,1.08c0.07,0.57-0.14,0.74-0.72,0.84
		c-1.77,0.31-3.29,1.06-3.93,2.92c-0.96,2.77,0.4,5.31,3.32,6.19c0.43,0.13,0.86,0.22,1.3,0.33
		C54.84,171.61,54.84,173.3,54.84,175.08z"/>
	<linearGradient id="SVGID_24_" gradientUnits="userSpaceOnUse" x1="98.0622" y1="199.3953" x2="104.921" y2="199.3953">
		<stop  offset="0" style="stop-color:#2E3192"/>
		<stop  offset="1" style="stop-color:#00AEEF"/>
	</linearGradient>
	<path class="st24" d="M104.92,178.85c0,13.79,0,27.42,0,41.09c-2.28,0-4.53,0-6.86,0c0-1.13,0-2.24,0-3.34
		c0-8.66,0-17.32,0.02-25.98c0-0.34,0.09-0.73,0.28-1c2.41-3.33,4.63-6.77,6.38-10.49C104.77,179.07,104.81,179.02,104.92,178.85z"
		/>
	<linearGradient id="SVGID_25_" gradientUnits="userSpaceOnUse" x1="88.6436" y1="206.4064" x2="95.5077" y2="206.4064">
		<stop  offset="0" style="stop-color:#2E3192"/>
		<stop  offset="1" style="stop-color:#00AEEF"/>
	</linearGradient>
	<path class="st25" d="M95.51,192.88c0,9.07,0,18.04,0,27.05c-2.25,0-4.5,0-6.86,0c0-0.23,0-0.47,0-0.71c0-6.44,0-12.87-0.01-19.31
		c0-0.44,0.14-0.71,0.48-1.02c1.96-1.78,3.88-3.6,5.81-5.41C95.11,193.31,95.27,193.13,95.51,192.88z"/>
	<linearGradient id="SVGID_26_" gradientUnits="userSpaceOnUse" x1="79.3609" y1="210.6111" x2="86.216" y2="210.6111">
		<stop  offset="0" style="stop-color:#2E3192"/>
		<stop  offset="1" style="stop-color:#00AEEF"/>
	</linearGradient>
	<path class="st26" d="M86.22,201.27c0,6.2,0,12.42,0,18.68c-2.28,0-4.51,0-6.85,0c0-1.27,0-2.51,0-3.74c0-3.52,0-7.03,0.02-10.55
		c0-0.25,0.12-0.62,0.31-0.72C81.84,203.7,84.02,202.49,86.22,201.27z"/>
	<linearGradient id="SVGID_27_" gradientUnits="userSpaceOnUse" x1="70.0304" y1="212.9975" x2="76.8982" y2="212.9975">
		<stop  offset="0" style="stop-color:#2E3192"/>
		<stop  offset="1" style="stop-color:#00AEEF"/>
	</linearGradient>
	<path class="st27" d="M76.9,219.95c-2.3,0-4.53,0-6.81,0c-0.02-0.23-0.04-0.43-0.04-0.63c0-3.47,0.01-6.94-0.02-10.41
		c0-0.56,0.15-0.82,0.73-0.98c1.85-0.52,3.68-1.12,5.51-1.69c0.19-0.06,0.38-0.12,0.63-0.2C76.9,210.69,76.9,215.28,76.9,219.95z"/>
	<linearGradient id="SVGID_28_" gradientUnits="userSpaceOnUse" x1="41.9575" y1="214.0912" x2="48.7337" y2="214.0912">
		<stop  offset="0" style="stop-color:#2E3192"/>
		<stop  offset="1" style="stop-color:#00AEEF"/>
	</linearGradient>
	<path class="st28" d="M41.96,208.25c2.28,0.37,4.51,0.73,6.78,1.1c0,3.52,0,7.02,0,10.58c-2.24,0-4.47,0-6.78,0
		C41.96,216.04,41.96,212.14,41.96,208.25z"/>
	<linearGradient id="SVGID_29_" gradientUnits="userSpaceOnUse" x1="60.6723" y1="214.3887" x2="67.4582" y2="214.3887">
		<stop  offset="0" style="stop-color:#2E3192"/>
		<stop  offset="1" style="stop-color:#00AEEF"/>
	</linearGradient>
	<path class="st29" d="M67.46,219.96c-2.27,0-4.5,0-6.79,0c0-3.44,0-6.87,0-10.29c2.26-0.28,4.49-0.56,6.79-0.84
		C67.46,212.48,67.46,216.18,67.46,219.96z"/>
	<linearGradient id="SVGID_30_" gradientUnits="userSpaceOnUse" x1="51.3885" y1="214.8273" x2="58.186" y2="214.8273">
		<stop  offset="0" style="stop-color:#2E3192"/>
		<stop  offset="1" style="stop-color:#00AEEF"/>
	</linearGradient>
	<path class="st30" d="M51.39,219.94c0-3.43,0-6.84,0-10.22c2.28,0,4.51,0,6.8,0c0,3.45,0,6.81,0,10.22
		C55.95,219.94,53.72,219.94,51.39,219.94z"/>
	<linearGradient id="SVGID_31_" gradientUnits="userSpaceOnUse" x1="56.3061" y1="172.9232" x2="58.6616" y2="172.9232">
		<stop  offset="0" style="stop-color:#2E3192"/>
		<stop  offset="1" style="stop-color:#00AEEF"/>
	</linearGradient>
	<path class="st31" d="M56.31,175.31c0-1.6,0-3.18,0-4.78c1.31,0.1,2.32,1,2.35,2.1C58.71,174.06,57.83,175.07,56.31,175.31z"/>
	<linearGradient id="SVGID_32_" gradientUnits="userSpaceOnUse" x1="52.7986" y1="164.6774" x2="54.6753" y2="164.6774">
		<stop  offset="0" style="stop-color:#2E3192"/>
		<stop  offset="1" style="stop-color:#00AEEF"/>
	</linearGradient>
	<path class="st32" d="M54.68,166.72c-1.29-0.28-1.83-0.84-1.87-1.89c-0.04-1.09,0.58-1.85,1.87-2.2
		C54.68,164,54.68,165.36,54.68,166.72z"/>
</g>
<g>
	<linearGradient id="SVGID_33_" gradientUnits="userSpaceOnUse" x1="161.5879" y1="190.449" x2="229.8987" y2="190.449">
		<stop  offset="0" style="stop-color:#2E3192"/>
		<stop  offset="1" style="stop-color:#00AEEF"/>
	</linearGradient>
	<path class="st33" d="M195.72,156.31c0,1.55,0,3.06,0,4.63c-10.31,0.33-18.54,4.6-24.41,13.12c-3.89,5.64-5.45,11.98-4.89,18.79
		c1.14,13.77,11.43,24.31,24.06,26.54c14.36,2.54,27.28-5.39,32.4-17.52c5.03-11.91,1.31-24.63-5.84-31.68
		c-1.38,1.65-2.75,3.3-4.23,5.07c-0.91-4.9-1.79-9.64-2.68-14.45c4.9,0,9.71,0,14.67,0c-1.59,1.92-3.11,3.76-4.66,5.63
		c7.24,7.74,10.59,16.86,9.59,27.42c-0.77,8.08-4.13,15.03-9.88,20.75c-11.45,11.4-28.8,12.98-41.86,4.96
		c-13.89-8.53-19.47-24.93-14.76-39.56C168.24,164.47,182.57,156.13,195.72,156.31z"/>
	
		<linearGradient id="SVGID_34_" gradientUnits="userSpaceOnUse" x1="236.1317" y1="166.4462" x2="267.3589" y2="166.4462" gradientTransform="matrix(-0.9285 0.3714 -0.3714 -0.9285 490.9078 235.8962)">
		<stop  offset="0" style="stop-color:#F58220"/>
		<stop  offset="1" style="stop-color:#FFC709"/>
	</linearGradient>
	<path class="st34" d="M205.85,159.08c-7.92,5.72-12.85,13.48-15.74,22.76c1.59,0.51,3.14,1.01,4.8,1.55
		c-3.39,2.49-6.68,4.9-10.03,7.36c-1.45-3.92-2.87-7.74-4.34-11.7c1.51,0.45,2.9,0.87,4.39,1.32
		C188.59,169.99,195.06,162.43,205.85,159.08z"/>
	<linearGradient id="SVGID_35_" gradientUnits="userSpaceOnUse" x1="180.7247" y1="199.5269" x2="194.5153" y2="199.5269">
		<stop  offset="0" style="stop-color:#F58220"/>
		<stop  offset="1" style="stop-color:#FFC709"/>
	</linearGradient>
	<path class="st35" d="M187.62,201.49c-1.91,0-3.82,0.01-5.74,0c-0.88,0-1.1-0.22-1.13-1.09c-0.02-0.58-0.03-1.16-0.02-1.73
		c0.02-0.77,0.35-1.09,1.11-1.1c3.82-0.01,7.65-0.01,11.47-0.01c0.86,0,1.2,0.34,1.2,1.2c0,0.56,0.01,1.11,0,1.67
		c-0.01,0.78-0.3,1.07-1.1,1.07C191.48,201.5,189.55,201.5,187.62,201.49C187.62,201.49,187.62,201.49,187.62,201.49z"/>
	<linearGradient id="SVGID_36_" gradientUnits="userSpaceOnUse" x1="196.9944" y1="199.5233" x2="210.7945" y2="199.5233">
		<stop  offset="0" style="stop-color:#2E3192"/>
		<stop  offset="1" style="stop-color:#00AEEF"/>
	</linearGradient>
	<path class="st36" d="M203.93,201.49c-1.93,0-3.87,0.01-5.8,0c-0.88,0-1.12-0.26-1.12-1.17c0-0.53-0.01-1.07,0-1.6
		c0.01-0.85,0.33-1.16,1.17-1.16c3.54,0,7.07,0.01,10.61,0.01c0.24,0,0.49,0,0.73-0.01c0.91-0.02,1.27,0.31,1.28,1.21
		c0.01,0.58,0.02,1.16,0,1.73c-0.03,0.71-0.34,0.99-1.05,0.99C207.8,201.49,205.86,201.49,203.93,201.49
		C203.93,201.49,203.93,201.49,203.93,201.49z"/>
	<linearGradient id="SVGID_37_" gradientUnits="userSpaceOnUse" x1="196.9905" y1="189.1019" x2="210.7922" y2="189.1019">
		<stop  offset="0" style="stop-color:#2E3192"/>
		<stop  offset="1" style="stop-color:#00AEEF"/>
	</linearGradient>
	<path class="st37" d="M203.86,191.07c-1.93,0-3.87,0-5.8,0c-0.76,0-1.04-0.27-1.05-1.04c-0.01-0.6-0.02-1.2-0.01-1.8
		c0.01-0.78,0.34-1.1,1.17-1.1c2.58,0,5.16,0.01,7.74,0.01c1.22,0,2.45-0.01,3.67-0.02c0.86-0.01,1.22,0.35,1.22,1.21
		c0,0.53,0,1.06-0.01,1.6c-0.02,0.81-0.33,1.13-1.12,1.14C207.73,191.08,205.8,191.07,203.86,191.07
		C203.86,191.07,203.86,191.07,203.86,191.07z"/>
	<linearGradient id="SVGID_38_" gradientUnits="userSpaceOnUse" x1="196.9896" y1="183.897" x2="210.7737" y2="183.897">
		<stop  offset="0" style="stop-color:#2E3192"/>
		<stop  offset="1" style="stop-color:#00AEEF"/>
	</linearGradient>
	<path class="st38" d="M203.82,185.87c-1.93,0-3.87,0-5.8,0c-0.73,0-1.01-0.28-1.03-0.99c-0.01-0.6,0-1.2,0.01-1.8
		c0.01-0.83,0.33-1.16,1.17-1.16c2.09-0.01,4.18,0,6.26,0c1.67,0,3.33,0,5,0c1.04,0,1.35,0.34,1.32,1.36
		c-0.02,0.49,0.02,0.97,0.02,1.46c-0.01,0.87-0.3,1.15-1.16,1.15c-1.93,0-3.86,0-5.8,0C203.82,185.88,203.82,185.88,203.82,185.87z"
		/>
	<linearGradient id="SVGID_39_" gradientUnits="userSpaceOnUse" x1="196.9954" y1="194.3148" x2="210.7888" y2="194.3148">
		<stop  offset="0" style="stop-color:#2E3192"/>
		<stop  offset="1" style="stop-color:#00AEEF"/>
	</linearGradient>
	<path class="st39" d="M203.86,196.29c-1.94,0-3.87,0.01-5.81,0c-0.8,0-1.06-0.3-1.05-1.1c0.01-0.6,0-1.2,0.02-1.8
		c0.02-0.68,0.34-1.05,1.02-1.05c3.89-0.01,7.79,0,11.68,0c0.63,0,1,0.3,1.01,0.97c0.01,0.67,0.07,1.33,0.06,2
		c0,0.67-0.36,0.99-1.06,0.99C207.77,196.3,205.81,196.3,203.86,196.29C203.86,196.3,203.86,196.29,203.86,196.29z"/>
	<linearGradient id="SVGID_40_" gradientUnits="userSpaceOnUse" x1="180.7392" y1="194.3088" x2="194.5138" y2="194.3088">
		<stop  offset="0" style="stop-color:#F58220"/>
		<stop  offset="1" style="stop-color:#FFC709"/>
	</linearGradient>
	<path class="st40" d="M187.66,196.29c-1.93,0-3.87,0-5.8,0c-0.82,0-1.15-0.38-1.11-1.2c0.03-0.55,0.02-1.11,0.05-1.67
		c0.04-0.84,0.3-1.09,1.15-1.09c2.16-0.01,4.31,0,6.47,0c1.58,0,3.16,0,4.74,0c1.08,0,1.36,0.29,1.36,1.39c0,0.49,0,0.98,0,1.47
		c0,0.83-0.26,1.1-1.12,1.1C191.48,196.29,189.57,196.29,187.66,196.29C187.66,196.29,187.66,196.29,187.66,196.29z"/>
	<linearGradient id="SVGID_41_" gradientUnits="userSpaceOnUse" x1="197.0059" y1="204.7324" x2="210.7596" y2="204.7324">
		<stop  offset="0" style="stop-color:#2E3192"/>
		<stop  offset="1" style="stop-color:#00AEEF"/>
	</linearGradient>
	<path class="st41" d="M203.92,206.71c-1.89,0-3.78,0-5.67,0c-1.02,0-1.25-0.23-1.24-1.25c0.01-0.53,0-1.07,0-1.6
		c0-0.76,0.35-1.1,1.16-1.11c1.45-0.01,2.89-0.01,4.34-0.01c2.27,0,4.54,0,6.81,0c1.22,0,1.44,0.25,1.43,1.43
		c-0.01,0.47,0,0.93,0.02,1.4c0.03,0.81-0.29,1.13-1.1,1.12C207.74,206.71,205.83,206.71,203.92,206.71z"/>
	<linearGradient id="SVGID_42_" gradientUnits="userSpaceOnUse" x1="180.7568" y1="204.7309" x2="194.5161" y2="204.7309">
		<stop  offset="0" style="stop-color:#F58220"/>
		<stop  offset="1" style="stop-color:#FFC709"/>
	</linearGradient>
	<path class="st42" d="M187.59,206.7c-1.96,0-3.91,0-5.87,0c-0.62,0-0.98-0.36-0.97-0.99c0.01-0.53,0.03-1.07,0.02-1.6
		c-0.01-1.11,0.23-1.36,1.37-1.36c1.96,0,3.91,0,5.87,0c1.73,0,3.47,0,5.2,0c1.02,0,1.3,0.3,1.3,1.31c0,0.51,0.01,1.02,0,1.53
		c-0.01,0.84-0.29,1.11-1.12,1.11C191.46,206.71,189.52,206.71,187.59,206.7C187.59,206.71,187.59,206.7,187.59,206.7z"/>
	<linearGradient id="SVGID_43_" gradientUnits="userSpaceOnUse" x1="180.7227" y1="209.9817" x2="194.5144" y2="209.9817">
		<stop  offset="0" style="stop-color:#F58220"/>
		<stop  offset="1" style="stop-color:#FFC709"/>
	</linearGradient>
	<path class="st43" d="M187.6,211.91c-1.93,0-3.87,0.01-5.8,0c-0.75,0-1.04-0.29-1.07-1.04c-0.02-0.58-0.02-1.16,0-1.73
		c0.02-0.85,0.28-1.1,1.14-1.1c2.91-0.01,5.82,0,8.73,0c0.98,0,1.95-0.01,2.93,0c0.7,0.01,0.95,0.28,0.97,0.97
		c0.01,0.6,0.01,1.2,0.01,1.8c0,0.84-0.25,1.11-1.11,1.12c-1.93,0.01-3.87,0-5.8,0C187.6,211.92,187.6,211.92,187.6,211.91z"/>
	<linearGradient id="SVGID_44_" gradientUnits="userSpaceOnUse" x1="196.9894" y1="209.9784" x2="210.7931" y2="209.9784">
		<stop  offset="0" style="stop-color:#2E3192"/>
		<stop  offset="1" style="stop-color:#00AEEF"/>
	</linearGradient>
	<path class="st44" d="M203.92,211.93c-1.96,0-3.91,0-5.87,0c-0.75,0-1.06-0.3-1.07-1.04c0-0.58,0-1.16,0.01-1.73
		c0-0.84,0.27-1.13,1.11-1.13c3.04,0,6.09,0,9.13,0c0.84,0,1.69,0.02,2.53,0c0.6-0.01,0.94,0.28,0.98,0.84
		c0.05,0.73,0.06,1.47,0.01,2.2c-0.04,0.55-0.36,0.86-0.97,0.86C207.83,211.92,205.88,211.92,203.92,211.93z"/>
</g>
<g>
	<linearGradient id="SVGID_45_" gradientUnits="userSpaceOnUse" x1="278.3835" y1="182.781" x2="336.8937" y2="182.781">
		<stop  offset="0" style="stop-color:#2E3192"/>
		<stop  offset="1" style="stop-color:#00AEEF"/>
	</linearGradient>
	<path class="st45" d="M278.38,211.93c0.47-11.79,5.95-20.39,16.13-26.1c-8.19-8-6.98-20.65,0.56-27.44
		c7.15-6.43,18.27-6.35,25.37,0.22c7.36,6.82,8.42,19.29,0.33,27.21c10.18,5.71,15.66,14.3,16.13,26.1
		C317.37,211.93,297.96,211.93,278.38,211.93z M283,207.77c16.44,0,32.84,0,49.25,0c-0.01-0.13,0-0.22-0.02-0.3
		c-1.85-8.73-6.86-14.91-15.01-18.52c-0.24-0.11-0.64-0.06-0.88,0.06c-5.8,2.87-11.59,2.88-17.38,0c-0.37-0.18-0.64-0.21-1.02-0.05
		c-5.87,2.56-10.2,6.72-12.97,12.49C284.02,203.45,283.35,205.55,283,207.77z M322.23,172.35c-0.01-8.02-6.57-14.58-14.59-14.58
		c-8.02,0-14.59,6.56-14.59,14.58c-0.01,8.05,6.58,14.63,14.63,14.61C315.69,186.95,322.24,180.38,322.23,172.35z"/>
	<linearGradient id="SVGID_46_" gradientUnits="userSpaceOnUse" x1="296.7163" y1="172.3691" x2="318.5607" y2="172.3691">
		<stop  offset="0" style="stop-color:#FFC709"/>
		<stop  offset="1" style="stop-color:#F58220"/>
	</linearGradient>
	<path class="st46" d="M318.56,172.36c-0.01-6-4.92-10.91-10.92-10.91c-6,0-10.92,4.91-10.92,10.91
		c-0.01,6.02,4.92,10.95,10.95,10.94C313.66,183.28,318.57,178.36,318.56,172.36z"/>
</g>
<g>
	<g>
		<linearGradient id="SVGID_47_" gradientUnits="userSpaceOnUse" x1="393.7216" y1="185.7963" x2="457.0319" y2="185.7963">
			<stop  offset="0" style="stop-color:#FFC709"/>
			<stop  offset="1" style="stop-color:#F58220"/>
		</linearGradient>
		<path class="st47" d="M457.03,198.2c0,2.34-0.01,4.69,0,7.03c0,0.84-0.34,1.44-1.06,1.86c-2.26,1.29-4.52,2.59-6.79,3.88
			c-1.76,1.01-3.53,1.98-5.26,3.03c-0.88,0.53-1.69,0.56-2.55,0c-0.61-0.4-1.26-0.72-1.88-1.1c-0.38-0.23-0.72-0.24-1.11-0.02
			c-3.89,2.24-7.77,4.47-11.67,6.7c-0.85,0.48-1.76,0.49-2.6,0.01c-3.84-2.18-7.67-4.38-11.5-6.59c-0.53-0.31-0.97-0.35-1.5,0
			c-0.64,0.42-1.33,0.77-1.99,1.15c-0.67,0.39-1.32,0.38-1.99,0c-4.12-2.36-8.24-4.73-12.36-7.08c-0.72-0.41-1.05-1.01-1.05-1.82
			c0-4.7,0-9.4,0-14.1c0-0.81,0.31-1.43,1.03-1.83c0.61-0.34,1.21-0.71,1.83-1.04c0.48-0.26,0.7-0.61,0.7-1.17
			c-0.01-4.65,0-9.29-0.02-13.94c0-0.88,0.34-1.49,1.09-1.91c3.97-2.26,7.93-4.53,11.9-6.78c0.53-0.3,0.78-0.68,0.75-1.31
			c-0.04-0.77,0-1.53-0.01-2.3c-0.02-0.88,0.39-1.48,1.13-1.9c2.62-1.49,5.23-3,7.86-4.48c1.54-0.87,3.1-1.72,4.65-2.58
			c0.5-0.28,1.01-0.31,1.51-0.03c1.92,1.07,3.83,2.15,5.74,3.23c2.21,1.26,4.4,2.54,6.62,3.77c0.98,0.54,1.38,1.3,1.28,2.41
			c-0.07,0.72-0.02,1.45-0.01,2.18c0,0.44,0.24,0.72,0.62,0.94c3.85,2.19,7.7,4.39,11.55,6.59c0.29,0.16,0.58,0.33,0.84,0.53
			c0.61,0.46,0.77,1.11,0.77,1.83c0,4.62,0.01,9.24-0.01,13.86c0,0.53,0.2,0.83,0.64,1.07c0.62,0.33,1.22,0.69,1.83,1.03
			c0.69,0.4,1.04,0.98,1.04,1.79C457.02,193.46,457.03,195.83,457.03,198.2z M400.97,185.69c0.2-0.09,0.34-0.14,0.47-0.22
			c1.83-1.04,3.66-2.07,5.48-3.13c0.81-0.47,1.58-0.47,2.4,0c4.01,2.31,8.03,4.6,12.06,6.89c0.76,0.43,1.13,1.04,1.13,1.93
			c-0.01,4.67-0.02,9.34,0,14.02c0,0.91-0.39,1.52-1.16,1.95c-1.76,0.99-3.51,2.01-5.26,3.02c-0.13,0.08-0.25,0.17-0.43,0.3
			c0.24,0.16,0.42,0.29,0.61,0.4c2.87,1.65,5.74,3.29,8.6,4.94c0.34,0.2,0.66,0.2,1,0c0.86-0.5,1.72-0.99,2.58-1.48
			c2.05-1.18,4.11-2.36,6.16-3.54c0.15-0.09,0.29-0.2,0.48-0.34c-0.18-0.12-0.29-0.21-0.41-0.28c-1.73-1-3.46-2-5.2-2.98
			c-0.83-0.47-1.23-1.12-1.23-2.09c0.02-4.59,0.02-9.19,0-13.78c-0.01-1,0.4-1.67,1.26-2.15c3.91-2.22,7.82-4.44,11.71-6.7
			c1.01-0.59,1.9-0.58,2.89,0.02c1.71,1.03,3.46,1.99,5.2,2.98c0.13,0.07,0.28,0.11,0.49,0.2c0.02-0.4,0.06-0.72,0.06-1.05
			c0-3.28-0.01-6.56,0.01-9.85c0-0.53-0.2-0.86-0.65-1.12c-2.85-1.62-5.7-3.25-8.55-4.87c-0.26-0.15-0.54-0.26-0.84-0.4
			c-0.04,0.15-0.07,0.24-0.07,0.32c0,1.87-0.03,3.73,0.04,5.6c0.04,1.19-0.25,2.08-1.38,2.68c-2.04,1.09-4.03,2.28-6.04,3.43
			c-1.93,1.1-3.86,2.21-5.78,3.32c-0.76,0.44-1.5,0.52-2.29,0.07c-4.03-2.31-8.05-4.63-12.09-6.91c-0.86-0.48-1.24-1.14-1.23-2.12
			c0.03-1.93,0.01-3.86,0.01-5.8c0-0.18-0.03-0.36-0.04-0.61c-0.35,0.17-0.64,0.29-0.91,0.44c-2.84,1.62-5.67,3.24-8.51,4.86
			c-0.41,0.23-0.59,0.54-0.59,1.03c0.01,3.51,0.01,7.01,0.01,10.52C400.95,185.34,400.96,185.48,400.97,185.69z M423.48,179.02
			c0.04-0.31,0.09-0.54,0.09-0.77c0.01-2.91,0-5.82,0.01-8.74c0-0.4-0.17-0.68-0.51-0.87c-2.67-1.52-5.33-3.04-8-4.56
			c-0.11-0.06-0.23-0.1-0.39-0.17c-0.02,0.17-0.05,0.29-0.05,0.4c0,3.03,0,6.06,0,9.09c0,0.43,0.17,0.75,0.56,0.97
			c2.5,1.42,4.99,2.85,7.48,4.27C422.91,178.78,423.16,178.87,423.48,179.02z M427.26,179.05c0.33-0.16,0.59-0.26,0.83-0.4
			c2.5-1.43,5-2.86,7.51-4.29c0.38-0.21,0.54-0.5,0.54-0.93c-0.01-2.92-0.01-5.85-0.01-8.77c0-0.22-0.04-0.43-0.07-0.73
			c-0.34,0.17-0.6,0.29-0.84,0.44c-2.47,1.41-4.93,2.82-7.41,4.22c-0.44,0.25-0.59,0.58-0.59,1.07c0.01,2.94,0,5.87,0.01,8.81
			C427.21,178.63,427.23,178.8,427.26,179.05z M409.97,209.34c0.32-0.15,0.59-0.25,0.83-0.39c2.52-1.43,5.03-2.87,7.54-4.3
			c0.37-0.21,0.54-0.5,0.54-0.93c-0.01-2.87,0-5.74-0.01-8.61c0-0.26-0.05-0.52-0.08-0.85c-0.29,0.13-0.52,0.22-0.74,0.34
			c-2.51,1.42-5,2.86-7.51,4.28c-0.44,0.25-0.61,0.57-0.61,1.06c0.01,2.96,0,5.93,0.01,8.89
			C409.94,208.96,409.95,209.1,409.97,209.34z M406.23,209.35c0.04-0.23,0.07-0.33,0.07-0.43c0-3.04,0-6.09,0-9.13
			c0-0.4-0.17-0.68-0.51-0.87c-2.63-1.5-5.26-3-7.89-4.5c-0.12-0.07-0.25-0.11-0.41-0.18c-0.03,0.33-0.08,0.59-0.08,0.85
			c-0.01,2.85,0,5.69-0.01,8.54c0,0.49,0.18,0.82,0.61,1.06c2.09,1.19,4.17,2.4,6.26,3.59
			C404.89,208.62,405.53,208.96,406.23,209.35z M440.73,209.33c0.03-0.27,0.07-0.46,0.07-0.64c0.01-2.94,0-5.87,0.02-8.81
			c0-0.47-0.17-0.77-0.57-0.99c-0.78-0.43-1.54-0.87-2.31-1.31c-1.73-0.99-3.46-1.98-5.2-2.97c-0.23-0.13-0.48-0.23-0.82-0.39
			c0,0.37,0,0.61,0,0.86c0,2.86,0.01,5.71-0.01,8.57c0,0.53,0.2,0.82,0.63,1.07c2.32,1.31,4.64,2.65,6.96,3.97
			C439.88,208.9,440.27,209.09,440.73,209.33z M453.31,194.21c-0.37,0.19-0.65,0.32-0.93,0.48c-2.41,1.37-4.82,2.76-7.24,4.12
			c-0.48,0.27-0.69,0.62-0.68,1.18c0.02,2.95,0.02,5.9,0.02,8.85c0,0.14,0.02,0.27,0.03,0.48c0.23-0.1,0.4-0.16,0.56-0.25
			c2.62-1.49,5.24-2.98,7.86-4.47c0.3-0.17,0.44-0.42,0.44-0.78c-0.01-3,0-6-0.01-9.01C453.36,194.65,453.33,194.48,453.31,194.21z"
			/>
	</g>
	
		<linearGradient id="SVGID_48_" gradientUnits="userSpaceOnUse" x1="409.1295" y1="171.4645" x2="418.0732" y2="171.4645" gradientTransform="matrix(-1 0 0 1 845.2513 0)">
		<stop  offset="0" style="stop-color:#2E3192"/>
		<stop  offset="1" style="stop-color:#00AEEF"/>
	</linearGradient>
	<path class="st48" d="M428.08,178.64c2.49-1.42,4.98-2.85,7.48-4.27c0.39-0.22,0.56-0.54,0.56-0.97c0-3.03,0-6.06,0-9.09
		c0-0.11-0.03-0.23-0.05-0.4c-0.16,0.07-0.28,0.11-0.39,0.17c-2.67,1.52-5.33,3.04-8,4.56c-0.34,0.19-0.51,0.47-0.51,0.87
		c0.01,2.91,0,5.82,0.01,8.74c0,0.23,0.05,0.46,0.09,0.77C427.59,178.87,427.84,178.78,428.08,178.64z"/>
	
		<linearGradient id="SVGID_49_" gradientUnits="userSpaceOnUse" x1="421.6977" y1="171.4924" x2="430.6278" y2="171.4924" gradientTransform="matrix(-1 0 0 1 845.2513 0)">
		<stop  offset="0" style="stop-color:#2E3192"/>
		<stop  offset="1" style="stop-color:#00AEEF"/>
	</linearGradient>
	<path class="st49" d="M423.55,178.47c0-2.94,0-5.87,0.01-8.81c0-0.48-0.15-0.82-0.59-1.07c-2.48-1.4-4.94-2.81-7.41-4.22
		c-0.25-0.14-0.51-0.26-0.84-0.44c-0.03,0.29-0.07,0.51-0.07,0.73c-0.01,2.92,0,5.85-0.01,8.77c0,0.43,0.16,0.72,0.54,0.93
		c2.51,1.42,5,2.86,7.51,4.29c0.24,0.14,0.5,0.24,0.83,0.4C423.52,178.8,423.55,178.63,423.55,178.47z"/>
	
		<linearGradient id="SVGID_50_" gradientUnits="userSpaceOnUse" x1="404.4346" y1="201.7969" x2="413.3845" y2="201.7969" gradientTransform="matrix(-1 0 0 1 845.2513 0)">
		<stop  offset="0" style="stop-color:#2E3192"/>
		<stop  offset="1" style="stop-color:#00AEEF"/>
	</linearGradient>
	<path class="st50" d="M440.81,208.82c0-2.96,0-5.93,0.01-8.89c0-0.49-0.17-0.81-0.61-1.06c-2.51-1.42-5.01-2.85-7.51-4.28
		c-0.21-0.12-0.44-0.2-0.74-0.34c-0.03,0.33-0.08,0.59-0.08,0.85c-0.01,2.87,0,5.74-0.01,8.61c0,0.43,0.17,0.72,0.54,0.93
		c2.52,1.43,5.03,2.87,7.54,4.3c0.24,0.14,0.51,0.24,0.83,0.39C440.8,209.1,440.81,208.96,440.81,208.82z"/>
	
		<linearGradient id="SVGID_51_" gradientUnits="userSpaceOnUse" x1="391.8882" y1="201.7872" x2="400.8014" y2="201.7872" gradientTransform="matrix(-1 0 0 1 845.2513 0)">
		<stop  offset="0" style="stop-color:#2E3192"/>
		<stop  offset="1" style="stop-color:#00AEEF"/>
	</linearGradient>
	<path class="st51" d="M446.49,208.26c2.09-1.19,4.17-2.4,6.26-3.59c0.43-0.24,0.61-0.57,0.61-1.06c-0.01-2.85,0-5.69-0.01-8.54
		c0-0.26-0.05-0.52-0.08-0.85c-0.17,0.07-0.3,0.11-0.41,0.18c-2.63,1.5-5.26,3-7.89,4.5c-0.34,0.19-0.51,0.48-0.51,0.87
		c0,3.04,0,6.09,0,9.13c0,0.1,0.03,0.2,0.07,0.43C445.22,208.96,445.86,208.62,446.49,208.26z"/>
	
		<linearGradient id="SVGID_52_" gradientUnits="userSpaceOnUse" x1="426.4117" y1="201.7711" x2="435.3183" y2="201.7711" gradientTransform="matrix(-1 0 0 1 845.2513 0)">
		<stop  offset="0" style="stop-color:#2E3192"/>
		<stop  offset="1" style="stop-color:#00AEEF"/>
	</linearGradient>
	<path class="st52" d="M411.25,208.68c2.32-1.32,4.63-2.65,6.96-3.97c0.44-0.25,0.64-0.54,0.63-1.07c-0.02-2.86-0.01-5.71-0.01-8.57
		c0-0.25,0-0.5,0-0.86c-0.34,0.16-0.59,0.26-0.82,0.39c-1.73,0.99-3.47,1.98-5.2,2.97c-0.77,0.44-1.53,0.89-2.31,1.31
		c-0.4,0.22-0.57,0.52-0.57,0.99c0.02,2.94,0.01,5.87,0.02,8.81c0,0.19,0.04,0.38,0.07,0.64
		C410.48,209.09,410.87,208.9,411.25,208.68z"/>
	
		<linearGradient id="SVGID_53_" gradientUnits="userSpaceOnUse" x1="438.9617" y1="201.7635" x2="447.8624" y2="201.7635" gradientTransform="matrix(-1 0 0 1 845.2513 0)">
		<stop  offset="0" style="stop-color:#2E3192"/>
		<stop  offset="1" style="stop-color:#00AEEF"/>
	</linearGradient>
	<path class="st53" d="M397.4,194.81c0,3,0,6-0.01,9.01c0,0.36,0.14,0.61,0.44,0.78c2.62,1.49,5.24,2.98,7.86,4.47
		c0.16,0.09,0.33,0.15,0.56,0.25c0.01-0.2,0.03-0.34,0.03-0.48c0-2.95,0-5.9,0.02-8.85c0-0.56-0.2-0.91-0.68-1.18
		c-2.42-1.36-4.82-2.75-7.24-4.12c-0.27-0.15-0.56-0.29-0.93-0.48C397.42,194.48,397.4,194.65,397.4,194.81z"/>
</g>
<g>
	<g>
		<linearGradient id="SVGID_54_" gradientUnits="userSpaceOnUse" x1="501.5578" y1="181.8455" x2="546.5128" y2="181.8455">
			<stop  offset="0" style="stop-color:#FFC709"/>
			<stop  offset="1" style="stop-color:#F58220"/>
		</linearGradient>
		<path class="st54" d="M531.79,155.86c0.47,0.06,0.95,0.11,1.42,0.17c2.66,0.37,5.06,1.39,7.19,3.02c3.13,2.41,5.05,5.58,5.79,9.45
			c0.37,1.97,0.42,3.95,0.21,5.94c-0.19,1.75-0.63,3.44-1.29,5.07c-0.08,0.19-0.17,0.23-0.36,0.24c-1.06,0.03-2.13,0.02-3.19,0.12
			c-2.16,0.2-4.19,0.86-6.11,1.84c-2.56,1.3-4.68,3.14-6.32,5.49c-1.16,1.66-2.24,3.38-3.34,5.08c-1.15,1.77-2.28,3.54-3.41,5.32
			c-0.1,0.16-0.21,0.22-0.4,0.2c-1.47-0.12-2.94-0.23-4.4-0.37c-0.24-0.02-0.35,0.05-0.46,0.23c-1.73,2.7-3.46,5.4-5.2,8.09
			c-0.72,1.12-1.74,1.85-3.07,2.03c-0.71,0.09-1.44,0.02-2.16,0.01c-0.89-0.01-1.78-0.03-2.66-0.03c-0.65-0.01-1-0.21-1.22-0.83
			c-0.21-0.59-0.37-1.19-0.52-1.79c-0.23-0.97-0.48-1.93-0.62-2.91c-0.2-1.35,0.1-2.63,0.88-3.75c4.55-6.54,9.12-13.06,13.69-19.59
			c0.15-0.22,0.16-0.38,0.05-0.62c-0.81-1.81-1.44-3.68-1.8-5.63c-0.64-3.52,0.13-6.74,2.22-9.63c1.93-2.68,4.53-4.51,7.57-5.72
			c1.88-0.75,3.83-1.24,5.86-1.37c0.08,0,0.15-0.03,0.22-0.05C530.81,155.86,531.3,155.86,531.79,155.86z M544.55,171.57
			c-0.05-0.5-0.11-1.31-0.22-2.11c-0.5-3.47-2.09-6.34-4.8-8.57c-2.38-1.95-5.12-2.97-8.2-3.04c-2.4-0.05-4.68,0.52-6.86,1.48
			c-2.69,1.18-4.98,2.87-6.6,5.37c-1.49,2.3-2.01,4.82-1.51,7.52c0.41,2.2,1.15,4.3,2.18,6.29c0.09,0.17,0.09,0.3-0.03,0.47
			c-1.93,2.74-3.85,5.5-5.77,8.25c-2.86,4.1-5.73,8.2-8.59,12.3c-0.51,0.73-0.74,1.58-0.59,2.44c0.21,1.21,0.53,2.39,0.8,3.59
			c0.04,0.17,0.12,0.23,0.3,0.23c1.25,0.01,2.5,0.03,3.75,0.04c0.11,0,0.23-0.02,0.34-0.05c0.65-0.18,1.13-0.59,1.49-1.15
			c1.85-2.87,3.69-5.74,5.54-8.61c0.27-0.42,0.56-0.71,1.17-0.64c1.31,0.16,2.62,0.22,3.93,0.34c0.23,0.02,0.33-0.05,0.44-0.22
			c1-1.56,1.97-3.14,3.01-4.67c1.25-1.86,2.27-3.88,3.75-5.58c0.44-0.51,0.85-1.04,1.33-1.52c3.82-3.84,8.46-5.81,13.87-5.95
			c0.25-0.01,0.36-0.06,0.45-0.31C544.33,175.65,544.56,173.78,544.55,171.57z"/>
		<linearGradient id="SVGID_55_" gradientUnits="userSpaceOnUse" x1="526.809" y1="197.2661" x2="558.9684" y2="197.2661">
			<stop  offset="0" style="stop-color:#FFC709"/>
			<stop  offset="1" style="stop-color:#F58220"/>
		</linearGradient>
		<path class="st55" d="M558.97,201.03c-0.3,0.66-0.59,1.33-0.88,1.99c-0.43,0.98-0.84,1.96-1.28,2.97
			c-0.71-0.16-1.41-0.32-2.11-0.48c-0.79-0.18-1.57-0.37-2.36-0.53c-0.1-0.02-0.26,0.04-0.34,0.12c-0.43,0.41-0.84,0.85-1.27,1.25
			c-0.14,0.13-0.16,0.24-0.12,0.4c0.32,1.38,0.64,2.77,0.96,4.15c0.04,0.15,0.06,0.26-0.14,0.34c-1.59,0.65-3.17,1.31-4.75,1.96
			c-0.04,0.02-0.09,0.02-0.15,0.04c-0.5-0.8-1-1.59-1.5-2.38c-0.31-0.49-0.61-0.98-0.93-1.45c-0.06-0.09-0.21-0.17-0.31-0.18
			c-0.62-0.02-1.25,0-1.87-0.01c-0.18,0-0.26,0.07-0.34,0.2c-0.76,1.17-1.52,2.34-2.28,3.51c-0.06,0.09-0.12,0.18-0.19,0.28
			c-1.69-0.69-3.37-1.38-5.08-2.08c0.18-0.76,0.36-1.51,0.54-2.27c0.17-0.72,0.34-1.44,0.52-2.15c0.04-0.17-0.01-0.24-0.11-0.35
			c-0.44-0.43-0.88-0.86-1.3-1.3c-0.12-0.12-0.21-0.15-0.38-0.11c-1.38,0.31-2.76,0.61-4.13,0.92c-0.22,0.05-0.33,0.01-0.41-0.21
			c-0.62-1.51-1.25-3.02-1.88-4.53c-0.08-0.19-0.05-0.28,0.13-0.39c1.2-0.74,2.4-1.49,3.6-2.23c0.15-0.09,0.2-0.19,0.2-0.37
			c-0.02-0.59-0.02-1.17,0-1.76c0.01-0.21-0.06-0.33-0.24-0.44c-1.16-0.73-2.32-1.48-3.48-2.22c-0.09-0.06-0.18-0.12-0.28-0.18
			c0.72-1.68,1.42-3.34,2.15-5.03c0.62,0.14,1.23,0.28,1.85,0.42c0.85,0.2,1.7,0.41,2.56,0.59c0.1,0.02,0.26-0.03,0.35-0.11
			c0.46-0.42,0.9-0.87,1.36-1.29c0.15-0.13,0.14-0.26,0.1-0.42c-0.32-1.43-0.64-2.87-0.96-4.3c0-0.02,0-0.04,0.01-0.09
			c1.67-0.67,3.36-1.34,5.06-2.03c0.32,0.51,0.63,1.01,0.95,1.52c0.49,0.78,0.97,1.55,1.45,2.33c0.09,0.15,0.19,0.18,0.35,0.17
			c0.57-0.02,1.15-0.03,1.72-0.01c0.21,0.01,0.33-0.03,0.45-0.21c0.72-1.16,1.45-2.31,2.17-3.47c0.06-0.1,0.13-0.19,0.2-0.3
			c0.85,0.35,1.69,0.69,2.52,1.03c0.78,0.32,1.56,0.65,2.35,0.97c0.17,0.07,0.21,0.14,0.16,0.32c-0.33,1.4-0.64,2.81-0.97,4.21
			c-0.04,0.15-0.02,0.24,0.1,0.35c0.46,0.44,0.9,0.89,1.36,1.33c0.07,0.07,0.22,0.1,0.32,0.08c1.39-0.32,2.78-0.65,4.18-0.98
			c0.08-0.02,0.17-0.03,0.27-0.05c0.36,0.86,0.7,1.7,1.06,2.54c0.35,0.82,0.7,1.64,1.05,2.46c0,0.02,0,0.04,0,0.06
			c-0.04,0.01-0.07,0.02-0.1,0.04c-1.27,0.79-2.54,1.59-3.82,2.38c-0.15,0.09-0.17,0.19-0.17,0.36c0.01,0.58,0.02,1.17,0,1.75
			c-0.01,0.19,0.03,0.3,0.2,0.4c1.21,0.73,2.41,1.47,3.61,2.21c0.09,0.05,0.19,0.09,0.28,0.13
			C558.97,200.95,558.97,200.99,558.97,201.03z M529.28,192.77c1.15,0.74,2.26,1.46,3.39,2.16c0.21,0.13,0.26,0.27,0.23,0.5
			c-0.05,0.28-0.08,0.56-0.11,0.84c-0.1,0.94-0.05,1.87,0.11,2.8c0.04,0.22-0.02,0.35-0.22,0.47c-1.07,0.65-2.13,1.33-3.21,1.98
			c-0.19,0.12-0.22,0.22-0.13,0.42c0.22,0.48,0.42,0.96,0.61,1.45c0.08,0.21,0.18,0.24,0.39,0.2c1.25-0.29,2.51-0.56,3.76-0.83
			c0.11-0.02,0.29,0.02,0.34,0.1c0.76,1.08,1.68,2,2.76,2.76c0.07,0.05,0.11,0.19,0.1,0.28c-0.08,0.4-0.18,0.8-0.27,1.19
			c-0.23,0.94-0.45,1.89-0.68,2.85c0.68,0.28,1.34,0.55,2.01,0.83c0.75-1.16,1.49-2.29,2.22-3.44c0.12-0.19,0.25-0.24,0.45-0.2
			c1.22,0.23,2.44,0.22,3.66,0c0.21-0.04,0.33,0.03,0.45,0.21c0.66,1.07,1.34,2.13,2.01,3.19c0.06,0.09,0.12,0.17,0.18,0.27
			c0.62-0.25,1.22-0.51,1.83-0.75c0.16-0.06,0.16-0.16,0.13-0.3c-0.3-1.27-0.58-2.54-0.88-3.81c-0.04-0.18-0.02-0.28,0.14-0.39
			c1.05-0.71,1.94-1.6,2.66-2.65c0.09-0.14,0.18-0.18,0.35-0.14c1.26,0.3,2.52,0.58,3.78,0.87c0.23,0.06,0.36,0.02,0.45-0.23
			c0.18-0.48,0.39-0.95,0.61-1.42c0.1-0.21,0.04-0.3-0.14-0.41c-1.1-0.67-2.19-1.35-3.29-2.02c-0.14-0.09-0.21-0.16-0.17-0.35
			c0.23-1.26,0.22-2.52,0.02-3.78c-0.03-0.21,0.02-0.31,0.19-0.42c1.1-0.68,2.2-1.37,3.3-2.05c0.17-0.1,0.2-0.19,0.12-0.37
			c-0.22-0.5-0.43-1-0.63-1.51c-0.06-0.16-0.13-0.21-0.32-0.17c-1.28,0.31-2.58,0.61-3.86,0.92c-0.17,0.04-0.24,0.01-0.33-0.12
			c-0.69-1.08-1.59-1.94-2.63-2.67c-0.2-0.14-0.24-0.28-0.18-0.51c0.31-1.3,0.6-2.61,0.91-3.94c-0.59-0.25-1.18-0.48-1.76-0.73
			c-0.19-0.08-0.28-0.06-0.39,0.12c-0.67,1.09-1.35,2.17-2.02,3.25c-0.09,0.15-0.19,0.2-0.37,0.17c-1.25-0.21-2.5-0.23-3.75,0
			c-0.19,0.04-0.3-0.01-0.4-0.18c-0.66-1.07-1.33-2.14-1.99-3.2c-0.06-0.1-0.12-0.19-0.19-0.29c-0.68,0.27-1.33,0.53-1.99,0.8
			c0.3,1.37,0.6,2.71,0.9,4.05c0.04,0.17,0.01,0.27-0.14,0.36c-1.1,0.68-1.99,1.59-2.75,2.63c-0.1,0.13-0.18,0.18-0.36,0.14
			c-0.66-0.17-1.32-0.32-1.99-0.47c-0.67-0.15-1.34-0.3-2.03-0.46C529.84,191.46,529.56,192.1,529.28,192.77z"/>
		<linearGradient id="SVGID_56_" gradientUnits="userSpaceOnUse" x1="525.3255" y1="168.2225" x2="540.4755" y2="168.2225">
			<stop  offset="0" style="stop-color:#2E3192"/>
			<stop  offset="1" style="stop-color:#00AEEF"/>
		</linearGradient>
		<path class="st56" d="M532.73,161.04c3.74,0.07,6.97,2.79,7.61,6.49c0.44,2.52-0.19,4.76-1.91,6.66
			c-1.13,1.25-2.53,1.55-4.06,0.85c-0.82-0.37-1.59-0.86-2.34-1.37c-1.55-1.06-3.09-2.15-4.6-3.26c-0.47-0.35-0.9-0.78-1.28-1.24
			c-0.9-1.1-1.07-2.35-0.46-3.64c1.01-2.16,2.72-3.52,5-4.15C531.35,161.2,532.05,161.15,532.73,161.04z M538.5,168.7
			c-0.03-0.22-0.05-0.47-0.09-0.71c-0.59-3.63-4.21-5.8-7.66-4.57c-1.46,0.52-2.56,1.46-3.26,2.85c-0.3,0.61-0.25,1.2,0.21,1.71
			c0.27,0.3,0.56,0.61,0.89,0.84c1.48,1.07,2.96,2.13,4.46,3.16c0.7,0.48,1.45,0.91,2.21,1.29c0.61,0.31,1.21,0.14,1.67-0.37
			C538.03,171.72,538.53,170.32,538.5,168.7z"/>
		<linearGradient id="SVGID_57_" gradientUnits="userSpaceOnUse" x1="505.5282" y1="191.5475" x2="521.0049" y2="191.5475">
			<stop  offset="0" style="stop-color:#2E3192"/>
			<stop  offset="1" style="stop-color:#00AEEF"/>
		</linearGradient>
		<path class="st57" d="M505.53,200.69c4.63-6.48,9.24-12.95,13.87-19.43c0.54,0.38,1.06,0.76,1.6,1.15
			c-4.62,6.48-9.23,12.94-13.87,19.43C506.59,201.45,506.07,201.08,505.53,200.69z"/>
	</g>
	<linearGradient id="SVGID_58_" gradientUnits="userSpaceOnUse" x1="536.4265" y1="196.9151" x2="549.299" y2="196.9151">
		<stop  offset="0" style="stop-color:#2E3192"/>
		<stop  offset="1" style="stop-color:#00AEEF"/>
	</linearGradient>
	<path class="st58" d="M543.23,204.42c-1.78,0-3.21-0.05-4.6-0.39c-0.44-0.11-0.88-0.26-1.27-0.47c-0.93-0.49-1.21-1.63-0.59-2.49
		c0.24-0.34,0.57-0.64,0.9-0.9c0.86-0.67,1.85-1.11,2.86-1.5c0.62-0.23,0.85-0.69,0.65-1.32c-0.04-0.11-0.12-0.22-0.2-0.31
		c-1.21-1.47-1.8-3.13-1.4-5.03c0.42-2.02,2.21-2.74,3.74-2.57c1.79,0.2,3.08,1.57,3.02,3.73c-0.04,1.47-0.59,2.74-1.53,3.86
		c-0.31,0.37-0.35,0.8-0.16,1.23c0.07,0.16,0.27,0.31,0.45,0.37c1.04,0.38,2.06,0.82,2.96,1.47c0.23,0.17,0.44,0.36,0.65,0.55
		c0.59,0.53,0.68,1.21,0.54,1.94c-0.07,0.39-0.34,0.66-0.67,0.87c-0.59,0.38-1.25,0.55-1.93,0.68
		C545.4,204.37,544.14,204.42,543.23,204.42z"/>
</g>
<g>
	<linearGradient id="SVGID_59_" gradientUnits="userSpaceOnUse" x1="35.0128" y1="302.7125" x2="114.5582" y2="302.7125">
		<stop  offset="0" style="stop-color:#FFC709"/>
		<stop  offset="1" style="stop-color:#F58220"/>
	</linearGradient>
	<path class="st59" d="M76.57,262.95c0.54,0.05,1.07,0.11,1.61,0.15c8.01,0.69,15.16,3.55,21.44,8.57
		c6.06,4.85,10.35,10.97,12.85,18.32c0.94,2.75,1.55,5.58,1.86,8.48c0.25,2.36,0.32,4.72,0.13,7.09c-0.63,8.23-3.49,15.6-8.65,22.03
		c-5.02,6.26-11.38,10.61-19.02,13.06c-2.81,0.9-5.69,1.46-8.63,1.7c-9.65,0.76-18.48-1.59-26.35-7.19
		c-8.38-5.97-13.67-14.05-15.9-24.11c-0.44-2.01-0.71-4.04-0.81-6.09c-0.01-0.15-0.05-0.29-0.07-0.44c0-1.19,0-2.38,0-3.57
		c0.05-0.54,0.11-1.07,0.15-1.61c0.19-2.54,0.65-5.03,1.36-7.47c2.35-8.13,6.82-14.87,13.41-20.17c6.27-5.04,13.44-7.88,21.46-8.58
		c0.54-0.05,1.07-0.1,1.61-0.15C74.19,262.95,75.38,262.95,76.57,262.95z M59.29,289.13c-3.86-3.86-7.75-7.75-11.66-11.66
		c-6.16,6.78-9.48,14.71-9.92,23.9c5.56,0,11.07,0,16.57,0c0,0.93,0,1.8,0,2.71c-5.53,0-11.02,0-16.57,0
		c0.44,9.18,3.76,17.1,9.97,23.94c3.93-3.93,7.83-7.83,11.64-11.64c0.61,0.6,1.23,1.21,1.87,1.84c-3.86,3.87-7.74,7.76-11.65,11.68
		c6.76,6.13,14.68,9.44,23.88,9.89c0-5.56,0-11.07,0-16.57c0.91,0,1.77,0,2.7,0c0,5.51,0,11.02,0,16.57
		c9.2-0.44,17.12-3.76,23.96-9.96c-3.93-3.93-7.82-7.82-11.64-11.64c0.6-0.63,1.21-1.25,1.85-1.92c3.87,3.87,7.76,7.76,11.67,11.68
		c6.14-6.77,9.46-14.69,9.9-23.87c-2.81,0-5.55,0-8.29,0c-2.76,0-5.51,0-8.28,0c0-0.92,0-1.78,0-2.69c2.76,0,5.51,0,8.25,0
		c2.75,0,5.51,0,8.3,0c-0.16-4.5-1.1-8.76-2.8-12.86c-1.7-4.1-4.08-7.77-7.14-11.08c-3.92,3.92-7.81,7.81-11.64,11.64
		c-0.62-0.61-1.25-1.22-1.92-1.88c3.87-3.87,7.76-7.76,11.68-11.68c-6.78-6.14-14.7-9.46-23.88-9.89c0,5.57,0,11.07,0,16.57
		c-0.91,0-1.78,0-2.71,0c0-5.52,0-11.03,0-16.57c-9.18,0.45-17.1,3.76-23.91,9.94c3.92,3.92,7.82,7.82,11.67,11.67
		C60.55,287.87,59.94,288.48,59.29,289.13z"/>
	<g>
		<g>
			
				<linearGradient id="SVGID_60_" gradientUnits="userSpaceOnUse" x1="68.2381" y1="278.1424" x2="81.1105" y2="278.1424" gradientTransform="matrix(-1 5.924114e-03 -5.924114e-03 -1 151.1421 605.4567)">
				<stop  offset="0" style="stop-color:#2E3192"/>
				<stop  offset="1" style="stop-color:#00AEEF"/>
			</linearGradient>
			<path class="st60" d="M74.41,320.26c1.78-0.01,3.21,0.03,4.61,0.37c0.44,0.1,0.88,0.26,1.28,0.46c0.94,0.48,1.22,1.62,0.61,2.49
				c-0.24,0.34-0.57,0.65-0.9,0.91c-0.86,0.67-1.84,1.13-2.85,1.51c-0.62,0.24-0.85,0.7-0.64,1.32c0.04,0.11,0.12,0.22,0.2,0.31
				c1.22,1.46,1.82,3.12,1.43,5.02c-0.41,2.02-2.19,2.76-3.73,2.6c-1.79-0.19-3.09-1.56-3.04-3.71c0.03-1.47,0.57-2.74,1.5-3.87
				c0.31-0.37,0.34-0.81,0.16-1.23c-0.07-0.16-0.28-0.31-0.45-0.37c-1.04-0.38-2.06-0.8-2.97-1.45c-0.23-0.17-0.44-0.36-0.66-0.55
				c-0.59-0.53-0.68-1.21-0.55-1.94c0.07-0.39,0.34-0.66,0.66-0.87c0.59-0.39,1.25-0.56,1.93-0.69
				C72.24,320.32,73.5,320.26,74.41,320.26z"/>
		</g>
		<g>
			
				<linearGradient id="SVGID_61_" gradientUnits="userSpaceOnUse" x1="68.2381" y1="278.1424" x2="81.1105" y2="278.1424" gradientTransform="matrix(-0.7113 -0.7029 0.7029 -0.7113 -85.1574 570.9269)">
				<stop  offset="0" style="stop-color:#2E3192"/>
				<stop  offset="1" style="stop-color:#00AEEF"/>
			</linearGradient>
			<path class="st61" d="M62.25,315.01c1.26,1.25,2.24,2.29,3,3.52c0.24,0.38,0.44,0.8,0.57,1.23c0.32,1-0.29,2.01-1.33,2.19
				c-0.41,0.07-0.86,0.06-1.28,0.01c-1.08-0.13-2.1-0.5-3.09-0.95c-0.6-0.27-1.09-0.1-1.39,0.48c-0.05,0.11-0.07,0.24-0.08,0.36
				c-0.17,1.9-0.92,3.49-2.53,4.56c-1.72,1.14-3.5,0.4-4.47-0.8c-1.14-1.4-1.09-3.29,0.48-4.78c1.06-1.01,2.34-1.54,3.8-1.67
				c0.48-0.04,0.81-0.33,0.98-0.76c0.06-0.16,0.02-0.41-0.06-0.58c-0.47-1.01-0.89-2.03-1.07-3.13c-0.05-0.28-0.06-0.57-0.07-0.85
				c-0.04-0.79,0.37-1.34,0.98-1.76c0.33-0.23,0.71-0.23,1.09-0.15c0.69,0.14,1.28,0.49,1.85,0.88
				C60.67,313.52,61.6,314.36,62.25,315.01z"/>
		</g>
		<g>
			
				<linearGradient id="SVGID_62_" gradientUnits="userSpaceOnUse" x1="68.2381" y1="278.1424" x2="81.1105" y2="278.1424" gradientTransform="matrix(-5.924114e-03 -1 1 -5.924114e-03 -227.83 379.4195)">
				<stop  offset="0" style="stop-color:#2E3192"/>
				<stop  offset="1" style="stop-color:#00AEEF"/>
			</linearGradient>
			<path class="st62" d="M57.37,302.69c0.01,1.78-0.03,3.21-0.37,4.61c-0.1,0.44-0.26,0.88-0.46,1.28
				c-0.48,0.94-1.62,1.22-2.49,0.61c-0.34-0.24-0.65-0.57-0.91-0.9c-0.67-0.86-1.13-1.84-1.51-2.85c-0.24-0.62-0.7-0.85-1.32-0.64
				c-0.11,0.04-0.22,0.12-0.31,0.2c-1.46,1.22-3.12,1.82-5.02,1.43c-2.02-0.41-2.76-2.19-2.6-3.73c0.19-1.79,1.56-3.09,3.71-3.04
				c1.47,0.03,2.74,0.57,3.87,1.5c0.37,0.31,0.81,0.34,1.23,0.16c0.16-0.07,0.31-0.28,0.37-0.45c0.38-1.04,0.8-2.06,1.45-2.97
				c0.17-0.23,0.36-0.44,0.55-0.66c0.53-0.59,1.21-0.68,1.94-0.55c0.39,0.07,0.66,0.34,0.87,0.66c0.39,0.59,0.56,1.25,0.69,1.93
				C57.3,300.52,57.37,301.77,57.37,302.69z"/>
		</g>
		<g>
			
				<linearGradient id="SVGID_63_" gradientUnits="userSpaceOnUse" x1="68.2381" y1="278.1424" x2="81.1105" y2="278.1424" gradientTransform="matrix(0.7029 -0.7113 0.7113 0.7029 -193.2995 143.1204)">
				<stop  offset="0" style="stop-color:#2E3192"/>
				<stop  offset="1" style="stop-color:#00AEEF"/>
			</linearGradient>
			<path class="st63" d="M62.62,290.53c-1.25,1.26-2.29,2.24-3.52,3c-0.38,0.24-0.8,0.44-1.23,0.57c-1,0.32-2.01-0.29-2.19-1.33
				c-0.07-0.41-0.06-0.86-0.01-1.28c0.13-1.08,0.5-2.1,0.95-3.09c0.27-0.6,0.1-1.09-0.48-1.39c-0.11-0.05-0.24-0.07-0.36-0.08
				c-1.9-0.17-3.49-0.92-4.56-2.53c-1.14-1.72-0.4-3.5,0.8-4.47c1.4-1.14,3.29-1.09,4.78,0.48c1.01,1.06,1.54,2.34,1.67,3.8
				c0.04,0.48,0.33,0.81,0.76,0.98c0.16,0.06,0.41,0.02,0.58-0.06c1.01-0.47,2.03-0.89,3.13-1.07c0.28-0.05,0.57-0.06,0.85-0.07
				c0.79-0.04,1.34,0.37,1.76,0.98c0.23,0.33,0.23,0.71,0.15,1.09c-0.14,0.69-0.49,1.28-0.88,1.85
				C64.11,288.95,63.27,289.88,62.62,290.53z"/>
		</g>
		<g>
			
				<linearGradient id="SVGID_64_" gradientUnits="userSpaceOnUse" x1="68.2381" y1="278.1424" x2="81.1105" y2="278.1424" gradientTransform="matrix(1 -5.924114e-03 5.924114e-03 1 -1.7932 0.4479)">
				<stop  offset="0" style="stop-color:#2E3192"/>
				<stop  offset="1" style="stop-color:#00AEEF"/>
			</linearGradient>
			<path class="st64" d="M74.94,285.64c-1.78,0.01-3.21-0.03-4.61-0.37c-0.44-0.1-0.88-0.26-1.28-0.46
				c-0.94-0.48-1.22-1.62-0.61-2.49c0.24-0.34,0.57-0.65,0.9-0.91c0.86-0.67,1.84-1.13,2.85-1.51c0.62-0.24,0.85-0.7,0.64-1.32
				c-0.04-0.11-0.12-0.22-0.2-0.31c-1.22-1.46-1.82-3.12-1.43-5.02c0.41-2.02,2.19-2.76,3.73-2.6c1.79,0.19,3.09,1.56,3.04,3.71
				c-0.03,1.47-0.57,2.74-1.5,3.87c-0.31,0.37-0.34,0.81-0.16,1.23c0.07,0.16,0.28,0.31,0.45,0.37c1.04,0.38,2.06,0.8,2.97,1.45
				c0.23,0.17,0.44,0.36,0.66,0.55c0.59,0.53,0.68,1.21,0.55,1.94c-0.07,0.39-0.34,0.66-0.66,0.87c-0.59,0.39-1.25,0.56-1.93,0.69
				C77.11,285.58,75.85,285.64,74.94,285.64z"/>
		</g>
		<g>
			
				<linearGradient id="SVGID_65_" gradientUnits="userSpaceOnUse" x1="68.2381" y1="278.1424" x2="81.1105" y2="278.1424" gradientTransform="matrix(0.7113 0.7029 -0.7029 0.7113 234.5061 34.9783)">
				<stop  offset="0" style="stop-color:#2E3192"/>
				<stop  offset="1" style="stop-color:#00AEEF"/>
			</linearGradient>
			<path class="st65" d="M87.1,290.9c-1.26-1.25-2.24-2.29-3-3.52c-0.24-0.38-0.44-0.8-0.57-1.23c-0.32-1,0.29-2.01,1.33-2.19
				c0.41-0.07,0.86-0.06,1.28-0.01c1.08,0.13,2.1,0.5,3.09,0.95c0.6,0.27,1.09,0.1,1.39-0.48c0.05-0.11,0.07-0.24,0.08-0.36
				c0.17-1.9,0.92-3.49,2.53-4.56c1.72-1.14,3.5-0.4,4.47,0.8c1.14,1.4,1.09,3.29-0.48,4.78c-1.06,1.01-2.34,1.54-3.8,1.67
				c-0.48,0.04-0.81,0.33-0.98,0.76c-0.06,0.16-0.02,0.41,0.06,0.58c0.47,1.01,0.89,2.03,1.07,3.13c0.05,0.28,0.06,0.57,0.07,0.85
				c0.04,0.79-0.37,1.34-0.98,1.76c-0.33,0.23-0.71,0.23-1.09,0.15c-0.69-0.14-1.28-0.49-1.85-0.88
				C88.68,292.39,87.74,291.55,87.1,290.9z"/>
		</g>
		<g>
			
				<linearGradient id="SVGID_66_" gradientUnits="userSpaceOnUse" x1="68.2381" y1="278.1424" x2="81.1105" y2="278.1424" gradientTransform="matrix(5.924114e-03 1 -1 5.924114e-03 377.1784 226.4847)">
				<stop  offset="0" style="stop-color:#2E3192"/>
				<stop  offset="1" style="stop-color:#00AEEF"/>
			</linearGradient>
			<path class="st66" d="M91.98,303.21c-0.01-1.78,0.03-3.21,0.37-4.61c0.1-0.44,0.26-0.88,0.46-1.28c0.48-0.94,1.62-1.22,2.49-0.61
				c0.34,0.24,0.65,0.57,0.91,0.9c0.67,0.86,1.13,1.84,1.51,2.85c0.24,0.62,0.7,0.85,1.32,0.64c0.11-0.04,0.22-0.12,0.31-0.2
				c1.46-1.22,3.12-1.82,5.02-1.43c2.02,0.41,2.76,2.19,2.6,3.73c-0.19,1.79-1.56,3.09-3.71,3.04c-1.47-0.03-2.74-0.57-3.87-1.5
				c-0.37-0.31-0.81-0.34-1.23-0.16c-0.16,0.07-0.31,0.28-0.37,0.45c-0.38,1.04-0.8,2.06-1.45,2.97c-0.17,0.23-0.36,0.44-0.55,0.66
				c-0.53,0.59-1.21,0.68-1.94,0.55c-0.39-0.07-0.66-0.34-0.87-0.66c-0.39-0.59-0.56-1.25-0.69-1.93
				C92.05,305.39,91.98,304.13,91.98,303.21z"/>
		</g>
		<g>
			
				<linearGradient id="SVGID_67_" gradientUnits="userSpaceOnUse" x1="68.2381" y1="278.1424" x2="81.1105" y2="278.1424" gradientTransform="matrix(-0.7029 0.7113 -0.7113 -0.7029 342.6477 462.7839)">
				<stop  offset="0" style="stop-color:#2E3192"/>
				<stop  offset="1" style="stop-color:#00AEEF"/>
			</linearGradient>
			<path class="st67" d="M86.73,315.38c1.25-1.26,2.29-2.24,3.52-3c0.38-0.24,0.8-0.44,1.23-0.57c1-0.32,2.01,0.29,2.19,1.33
				c0.07,0.41,0.06,0.86,0.01,1.28c-0.13,1.08-0.5,2.1-0.95,3.09c-0.27,0.6-0.1,1.09,0.48,1.39c0.11,0.05,0.24,0.07,0.36,0.08
				c1.9,0.17,3.49,0.92,4.56,2.53c1.14,1.72,0.4,3.5-0.8,4.47c-1.4,1.14-3.29,1.09-4.78-0.48c-1.01-1.06-1.54-2.34-1.67-3.8
				c-0.04-0.48-0.33-0.81-0.76-0.98c-0.16-0.06-0.41-0.02-0.58,0.06c-1.01,0.47-2.03,0.89-3.13,1.07c-0.28,0.05-0.57,0.06-0.85,0.07
				c-0.79,0.04-1.34-0.37-1.76-0.98c-0.23-0.33-0.23-0.71-0.15-1.09c0.14-0.69,0.49-1.28,0.88-1.85
				C85.24,316.96,86.08,316.02,86.73,315.38z"/>
		</g>
	</g>
	<g>
		<linearGradient id="SVGID_68_" gradientUnits="userSpaceOnUse" x1="62.5363" y1="300.6296" x2="81.5454" y2="300.6296">
			<stop  offset="0" style="stop-color:#FFC709"/>
			<stop  offset="1" style="stop-color:#F58220"/>
		</linearGradient>
		<path class="st68" d="M75.32,289.64c0.2,0.02,0.4,0.04,0.6,0.07c1.13,0.16,2.14,0.59,3.04,1.28c1.32,1.02,2.14,2.36,2.45,4
			c0.16,0.83,0.18,1.67,0.09,2.51c-0.08,0.74-0.27,1.46-0.55,2.15c-0.03,0.08-0.07,0.1-0.15,0.1c-0.45,0.01-0.9,0.01-1.35,0.05
			c-0.91,0.08-1.77,0.36-2.58,0.78c-1.08,0.55-1.98,1.33-2.67,2.32c-0.49,0.7-0.95,1.43-1.41,2.15c-0.48,0.75-0.96,1.5-1.44,2.25
			c-0.04,0.07-0.09,0.09-0.17,0.08c-0.62-0.05-1.24-0.1-1.86-0.15c-0.1-0.01-0.15,0.02-0.2,0.1c-0.73,1.14-1.46,2.28-2.2,3.42
			c-0.31,0.47-0.74,0.78-1.3,0.86c-0.3,0.04-0.61,0.01-0.91,0.01c-0.38,0-0.75-0.01-1.13-0.01c-0.28,0-0.42-0.09-0.52-0.35
			c-0.09-0.25-0.16-0.5-0.22-0.76c-0.1-0.41-0.2-0.82-0.26-1.23c-0.08-0.57,0.04-1.11,0.37-1.59c1.92-2.76,3.86-5.52,5.79-8.28
			c0.07-0.09,0.07-0.16,0.02-0.26c-0.34-0.76-0.61-1.56-0.76-2.38c-0.27-1.49,0.06-2.85,0.94-4.07c0.82-1.13,1.92-1.9,3.2-2.42
			c0.8-0.32,1.62-0.52,2.48-0.58c0.03,0,0.06-0.01,0.1-0.02C74.9,289.64,75.11,289.64,75.32,289.64z M80.72,296.28
			c-0.02-0.21-0.05-0.55-0.09-0.89c-0.21-1.47-0.88-2.68-2.03-3.62c-1-0.83-2.16-1.26-3.47-1.29c-1.02-0.02-1.98,0.22-2.9,0.62
			c-1.14,0.5-2.11,1.21-2.79,2.27c-0.63,0.97-0.85,2.04-0.64,3.18c0.17,0.93,0.49,1.82,0.92,2.66c0.04,0.07,0.04,0.12-0.01,0.2
			c-0.82,1.16-1.63,2.32-2.44,3.49c-1.21,1.73-2.42,3.47-3.63,5.2c-0.22,0.31-0.31,0.67-0.25,1.03c0.09,0.51,0.23,1.01,0.34,1.52
			c0.02,0.07,0.05,0.1,0.13,0.1c0.53,0,1.06,0.01,1.59,0.02c0.05,0,0.1-0.01,0.15-0.02c0.28-0.08,0.48-0.25,0.63-0.49
			c0.78-1.21,1.56-2.43,2.34-3.64c0.11-0.18,0.24-0.3,0.49-0.27c0.55,0.07,1.11,0.09,1.66,0.14c0.1,0.01,0.14-0.02,0.19-0.09
			c0.42-0.66,0.83-1.33,1.27-1.98c0.53-0.78,0.96-1.64,1.59-2.36c0.19-0.21,0.36-0.44,0.56-0.64c1.62-1.62,3.58-2.46,5.87-2.52
			c0.11,0,0.15-0.02,0.19-0.13C80.62,298.01,80.72,297.22,80.72,296.28z"/>
		<linearGradient id="SVGID_69_" gradientUnits="userSpaceOnUse" x1="73.2137" y1="307.1502" x2="86.8123" y2="307.1502">
			<stop  offset="0" style="stop-color:#FFC709"/>
			<stop  offset="1" style="stop-color:#F58220"/>
		</linearGradient>
		<path class="st69" d="M86.81,308.74c-0.12,0.28-0.25,0.56-0.37,0.84c-0.18,0.41-0.36,0.83-0.54,1.26c-0.3-0.07-0.6-0.13-0.89-0.2
			c-0.33-0.08-0.66-0.16-1-0.23c-0.04-0.01-0.11,0.02-0.14,0.05c-0.18,0.17-0.35,0.36-0.54,0.53c-0.06,0.05-0.07,0.1-0.05,0.17
			c0.14,0.58,0.27,1.17,0.41,1.76c0.02,0.07,0.03,0.11-0.06,0.14c-0.67,0.27-1.34,0.55-2.01,0.83c-0.02,0.01-0.04,0.01-0.06,0.02
			c-0.21-0.34-0.42-0.67-0.63-1c-0.13-0.21-0.26-0.41-0.39-0.62c-0.03-0.04-0.09-0.07-0.13-0.07c-0.26-0.01-0.53,0-0.79-0.01
			c-0.07,0-0.11,0.03-0.15,0.09c-0.32,0.5-0.64,0.99-0.96,1.48c-0.02,0.04-0.05,0.07-0.08,0.12c-0.71-0.29-1.42-0.58-2.15-0.88
			c0.08-0.32,0.15-0.64,0.23-0.96c0.07-0.3,0.14-0.61,0.22-0.91c0.02-0.07,0-0.1-0.05-0.15c-0.19-0.18-0.37-0.36-0.55-0.55
			c-0.05-0.05-0.09-0.06-0.16-0.05c-0.58,0.13-1.17,0.26-1.75,0.39c-0.09,0.02-0.14,0-0.18-0.09c-0.26-0.64-0.53-1.28-0.8-1.91
			c-0.03-0.08-0.02-0.12,0.05-0.17c0.51-0.31,1.01-0.63,1.52-0.94c0.06-0.04,0.09-0.08,0.08-0.16c-0.01-0.25-0.01-0.5,0-0.74
			c0-0.09-0.03-0.14-0.1-0.19c-0.49-0.31-0.98-0.62-1.47-0.94c-0.04-0.02-0.07-0.05-0.12-0.08c0.3-0.71,0.6-1.41,0.91-2.13
			c0.26,0.06,0.52,0.12,0.78,0.18c0.36,0.08,0.72,0.17,1.08,0.25c0.04,0.01,0.11-0.01,0.15-0.05c0.19-0.18,0.38-0.37,0.57-0.55
			c0.06-0.06,0.06-0.11,0.04-0.18c-0.14-0.61-0.27-1.21-0.41-1.82c0-0.01,0-0.02,0-0.04c0.71-0.28,1.42-0.57,2.14-0.86
			c0.13,0.22,0.27,0.43,0.4,0.64c0.21,0.33,0.41,0.66,0.61,0.99c0.04,0.06,0.08,0.07,0.15,0.07c0.24-0.01,0.49-0.01,0.73,0
			c0.09,0,0.14-0.01,0.19-0.09c0.3-0.49,0.61-0.98,0.92-1.47c0.03-0.04,0.05-0.08,0.09-0.13c0.36,0.15,0.71,0.29,1.07,0.44
			c0.33,0.14,0.66,0.28,0.99,0.41c0.07,0.03,0.09,0.06,0.07,0.14c-0.14,0.59-0.27,1.19-0.41,1.78c-0.02,0.06-0.01,0.1,0.04,0.15
			c0.19,0.18,0.38,0.38,0.57,0.56c0.03,0.03,0.09,0.04,0.14,0.03c0.59-0.14,1.18-0.28,1.77-0.42c0.04-0.01,0.07-0.01,0.11-0.02
			c0.15,0.36,0.3,0.72,0.45,1.07c0.15,0.35,0.3,0.69,0.44,1.04c0,0.01,0,0.02,0,0.02c-0.01,0.01-0.03,0.01-0.04,0.02
			c-0.54,0.34-1.07,0.67-1.61,1c-0.06,0.04-0.07,0.08-0.07,0.15c0.01,0.25,0.01,0.49,0,0.74c0,0.08,0.01,0.13,0.08,0.17
			c0.51,0.31,1.02,0.62,1.53,0.93c0.04,0.02,0.08,0.04,0.12,0.06C86.81,308.71,86.81,308.72,86.81,308.74z M74.26,305.25
			c0.49,0.31,0.96,0.62,1.43,0.91c0.09,0.06,0.11,0.12,0.1,0.21c-0.02,0.12-0.03,0.24-0.05,0.36c-0.04,0.4-0.02,0.79,0.05,1.18
			c0.02,0.09-0.01,0.15-0.09,0.2c-0.45,0.28-0.9,0.56-1.36,0.84c-0.08,0.05-0.09,0.09-0.05,0.18c0.09,0.2,0.18,0.41,0.26,0.61
			c0.03,0.09,0.08,0.1,0.17,0.08c0.53-0.12,1.06-0.24,1.59-0.35c0.04-0.01,0.12,0.01,0.15,0.04c0.32,0.46,0.71,0.84,1.17,1.17
			c0.03,0.02,0.05,0.08,0.04,0.12c-0.03,0.17-0.08,0.34-0.12,0.5c-0.1,0.4-0.19,0.8-0.29,1.21c0.29,0.12,0.57,0.23,0.85,0.35
			c0.32-0.49,0.63-0.97,0.94-1.45c0.05-0.08,0.11-0.1,0.19-0.08c0.52,0.1,1.03,0.09,1.55,0c0.09-0.02,0.14,0.01,0.19,0.09
			c0.28,0.45,0.57,0.9,0.85,1.35c0.02,0.04,0.05,0.07,0.08,0.11c0.26-0.11,0.52-0.21,0.77-0.32c0.07-0.03,0.07-0.07,0.05-0.13
			c-0.13-0.54-0.25-1.07-0.37-1.61c-0.02-0.07-0.01-0.12,0.06-0.16c0.45-0.3,0.82-0.68,1.12-1.12c0.04-0.06,0.07-0.08,0.15-0.06
			c0.53,0.13,1.07,0.24,1.6,0.37c0.1,0.02,0.15,0.01,0.19-0.1c0.08-0.2,0.17-0.4,0.26-0.6c0.04-0.09,0.02-0.13-0.06-0.17
			c-0.47-0.28-0.93-0.57-1.39-0.85c-0.06-0.04-0.09-0.07-0.07-0.15c0.1-0.53,0.09-1.07,0.01-1.6c-0.01-0.09,0.01-0.13,0.08-0.18
			c0.47-0.29,0.93-0.58,1.4-0.87c0.07-0.04,0.08-0.08,0.05-0.16c-0.09-0.21-0.18-0.42-0.27-0.64c-0.03-0.07-0.05-0.09-0.14-0.07
			c-0.54,0.13-1.09,0.26-1.63,0.39c-0.07,0.02-0.1,0.01-0.14-0.05c-0.29-0.46-0.67-0.82-1.11-1.13c-0.09-0.06-0.1-0.12-0.08-0.22
			c0.13-0.55,0.26-1.1,0.38-1.67c-0.25-0.1-0.5-0.2-0.74-0.31c-0.08-0.03-0.12-0.03-0.17,0.05c-0.28,0.46-0.57,0.92-0.86,1.37
			c-0.04,0.06-0.08,0.09-0.16,0.07c-0.53-0.09-1.06-0.1-1.59,0c-0.08,0.02-0.12-0.01-0.17-0.08c-0.28-0.45-0.56-0.9-0.84-1.35
			c-0.03-0.04-0.05-0.08-0.08-0.12c-0.29,0.11-0.56,0.23-0.84,0.34c0.13,0.58,0.25,1.15,0.38,1.71c0.02,0.07,0,0.11-0.06,0.15
			c-0.47,0.29-0.84,0.67-1.16,1.11c-0.04,0.06-0.08,0.08-0.15,0.06c-0.28-0.07-0.56-0.13-0.84-0.2c-0.28-0.06-0.57-0.13-0.86-0.19
			C74.49,304.7,74.38,304.97,74.26,305.25z"/>
		<linearGradient id="SVGID_70_" gradientUnits="userSpaceOnUse" x1="76.9012" y1="307.1502" x2="83.1248" y2="307.1502">
			<stop  offset="0" style="stop-color:#FFC709"/>
			<stop  offset="1" style="stop-color:#F58220"/>
		</linearGradient>
		<path class="st70" d="M83.12,307.88c-0.06,0.13-0.12,0.26-0.17,0.39c-0.08,0.19-0.16,0.38-0.25,0.58
			c-0.14-0.03-0.27-0.06-0.41-0.09c-0.15-0.03-0.3-0.07-0.46-0.1c-0.02,0-0.05,0.01-0.07,0.02c-0.08,0.08-0.16,0.16-0.25,0.24
			c-0.03,0.02-0.03,0.05-0.02,0.08c0.06,0.27,0.12,0.54,0.19,0.8c0.01,0.03,0.01,0.05-0.03,0.07c-0.31,0.13-0.61,0.25-0.92,0.38
			c-0.01,0-0.02,0-0.03,0.01c-0.1-0.15-0.19-0.31-0.29-0.46c-0.06-0.09-0.12-0.19-0.18-0.28c-0.01-0.02-0.04-0.03-0.06-0.03
			c-0.12,0-0.24,0-0.36,0c-0.03,0-0.05,0.01-0.07,0.04c-0.15,0.23-0.29,0.45-0.44,0.68c-0.01,0.02-0.02,0.03-0.04,0.05
			c-0.33-0.13-0.65-0.27-0.98-0.4c0.04-0.15,0.07-0.29,0.1-0.44c0.03-0.14,0.06-0.28,0.1-0.42c0.01-0.03,0-0.05-0.02-0.07
			c-0.09-0.08-0.17-0.17-0.25-0.25c-0.02-0.02-0.04-0.03-0.07-0.02c-0.27,0.06-0.53,0.12-0.8,0.18c-0.04,0.01-0.06,0-0.08-0.04
			c-0.12-0.29-0.24-0.58-0.36-0.88c-0.02-0.04-0.01-0.05,0.02-0.08c0.23-0.14,0.46-0.29,0.7-0.43c0.03-0.02,0.04-0.04,0.04-0.07
			c0-0.11,0-0.23,0-0.34c0-0.04-0.01-0.06-0.05-0.09c-0.22-0.14-0.45-0.29-0.67-0.43c-0.02-0.01-0.03-0.02-0.05-0.04
			c0.14-0.32,0.28-0.65,0.42-0.97c0.12,0.03,0.24,0.05,0.36,0.08c0.17,0.04,0.33,0.08,0.5,0.11c0.02,0,0.05-0.01,0.07-0.02
			c0.09-0.08,0.17-0.17,0.26-0.25c0.03-0.03,0.03-0.05,0.02-0.08c-0.06-0.28-0.12-0.55-0.19-0.83c0,0,0-0.01,0-0.02
			c0.32-0.13,0.65-0.26,0.98-0.39c0.06,0.1,0.12,0.2,0.18,0.29c0.09,0.15,0.19,0.3,0.28,0.45c0.02,0.03,0.04,0.03,0.07,0.03
			c0.11,0,0.22-0.01,0.33,0c0.04,0,0.06,0,0.09-0.04c0.14-0.22,0.28-0.45,0.42-0.67c0.01-0.02,0.02-0.04,0.04-0.06
			c0.17,0.07,0.33,0.13,0.49,0.2c0.15,0.06,0.3,0.13,0.45,0.19c0.03,0.01,0.04,0.03,0.03,0.06c-0.06,0.27-0.12,0.54-0.19,0.81
			c-0.01,0.03,0,0.05,0.02,0.07c0.09,0.08,0.17,0.17,0.26,0.26c0.01,0.01,0.04,0.02,0.06,0.02c0.27-0.06,0.54-0.13,0.81-0.19
			c0.02,0,0.03-0.01,0.05-0.01c0.07,0.17,0.14,0.33,0.2,0.49c0.07,0.16,0.14,0.32,0.2,0.48c0,0,0,0.01,0,0.01
			c-0.01,0-0.01,0-0.02,0.01c-0.25,0.15-0.49,0.31-0.74,0.46c-0.03,0.02-0.03,0.04-0.03,0.07c0,0.11,0,0.23,0,0.34
			c0,0.04,0.01,0.06,0.04,0.08c0.23,0.14,0.47,0.29,0.7,0.43c0.02,0.01,0.04,0.02,0.05,0.03C83.12,307.86,83.12,307.87,83.12,307.88
			z M77.38,306.28c0.22,0.14,0.44,0.28,0.66,0.42c0.04,0.03,0.05,0.05,0.04,0.1c-0.01,0.05-0.02,0.11-0.02,0.16
			c-0.02,0.18-0.01,0.36,0.02,0.54c0.01,0.04,0,0.07-0.04,0.09c-0.21,0.13-0.41,0.26-0.62,0.38c-0.04,0.02-0.04,0.04-0.02,0.08
			c0.04,0.09,0.08,0.19,0.12,0.28c0.02,0.04,0.03,0.05,0.08,0.04c0.24-0.06,0.48-0.11,0.73-0.16c0.02,0,0.06,0,0.07,0.02
			c0.15,0.21,0.33,0.39,0.53,0.53c0.01,0.01,0.02,0.04,0.02,0.05c-0.02,0.08-0.03,0.15-0.05,0.23c-0.04,0.18-0.09,0.37-0.13,0.55
			c0.13,0.05,0.26,0.11,0.39,0.16c0.15-0.22,0.29-0.44,0.43-0.66c0.02-0.04,0.05-0.05,0.09-0.04c0.24,0.04,0.47,0.04,0.71,0
			c0.04-0.01,0.06,0.01,0.09,0.04c0.13,0.21,0.26,0.41,0.39,0.62c0.01,0.02,0.02,0.03,0.04,0.05c0.12-0.05,0.24-0.1,0.35-0.14
			c0.03-0.01,0.03-0.03,0.02-0.06c-0.06-0.25-0.11-0.49-0.17-0.74c-0.01-0.03,0-0.05,0.03-0.07c0.2-0.14,0.37-0.31,0.51-0.51
			c0.02-0.03,0.03-0.03,0.07-0.03c0.24,0.06,0.49,0.11,0.73,0.17c0.05,0.01,0.07,0,0.09-0.04c0.03-0.09,0.08-0.18,0.12-0.27
			c0.02-0.04,0.01-0.06-0.03-0.08c-0.21-0.13-0.42-0.26-0.64-0.39c-0.03-0.02-0.04-0.03-0.03-0.07c0.04-0.24,0.04-0.49,0-0.73
			c-0.01-0.04,0-0.06,0.04-0.08c0.21-0.13,0.43-0.27,0.64-0.4c0.03-0.02,0.04-0.04,0.02-0.07c-0.04-0.1-0.08-0.19-0.12-0.29
			c-0.01-0.03-0.03-0.04-0.06-0.03c-0.25,0.06-0.5,0.12-0.75,0.18c-0.03,0.01-0.05,0-0.06-0.02c-0.13-0.21-0.31-0.38-0.51-0.52
			c-0.04-0.03-0.05-0.05-0.03-0.1c0.06-0.25,0.12-0.51,0.18-0.76c-0.11-0.05-0.23-0.09-0.34-0.14c-0.04-0.02-0.05-0.01-0.08,0.02
			c-0.13,0.21-0.26,0.42-0.39,0.63c-0.02,0.03-0.04,0.04-0.07,0.03c-0.24-0.04-0.48-0.04-0.73,0c-0.04,0.01-0.06,0-0.08-0.04
			c-0.13-0.21-0.26-0.41-0.39-0.62c-0.01-0.02-0.02-0.04-0.04-0.06c-0.13,0.05-0.26,0.1-0.39,0.15c0.06,0.27,0.12,0.52,0.17,0.78
			c0.01,0.03,0,0.05-0.03,0.07c-0.21,0.13-0.39,0.31-0.53,0.51c-0.02,0.03-0.03,0.04-0.07,0.03c-0.13-0.03-0.26-0.06-0.38-0.09
			c-0.13-0.03-0.26-0.06-0.39-0.09C77.49,306.03,77.43,306.15,77.38,306.28z"/>
		<linearGradient id="SVGID_71_" gradientUnits="userSpaceOnUse" x1="72.5864" y1="294.8691" x2="78.9926" y2="294.8691">
			<stop  offset="0" style="stop-color:#2E3192"/>
			<stop  offset="1" style="stop-color:#00AEEF"/>
		</linearGradient>
		<path class="st71" d="M75.72,291.83c1.58,0.03,2.95,1.18,3.22,2.74c0.19,1.07-0.08,2.01-0.81,2.82c-0.48,0.53-1.07,0.65-1.72,0.36
			c-0.35-0.16-0.67-0.37-0.99-0.58c-0.66-0.45-1.31-0.91-1.95-1.38c-0.2-0.15-0.38-0.33-0.54-0.52c-0.38-0.47-0.45-0.99-0.2-1.54
			c0.43-0.91,1.15-1.49,2.12-1.76C75.13,291.9,75.43,291.88,75.72,291.83z M78.16,295.07c-0.01-0.09-0.02-0.2-0.04-0.3
			c-0.25-1.53-1.78-2.45-3.24-1.93c-0.62,0.22-1.08,0.62-1.38,1.21c-0.13,0.26-0.11,0.51,0.09,0.72c0.12,0.13,0.24,0.26,0.38,0.36
			c0.62,0.45,1.25,0.9,1.89,1.33c0.3,0.2,0.61,0.39,0.93,0.55c0.26,0.13,0.51,0.06,0.71-0.16
			C77.96,296.35,78.17,295.76,78.16,295.07z"/>
		<linearGradient id="SVGID_72_" gradientUnits="userSpaceOnUse" x1="64.2151" y1="304.7321" x2="70.7595" y2="304.7321">
			<stop  offset="0" style="stop-color:#2E3192"/>
			<stop  offset="1" style="stop-color:#00AEEF"/>
		</linearGradient>
		<path class="st72" d="M64.22,308.6c1.96-2.74,3.91-5.48,5.87-8.22c0.23,0.16,0.45,0.32,0.68,0.48c-1.95,2.74-3.9,5.47-5.87,8.22
			C64.67,308.92,64.44,308.76,64.22,308.6z"/>
		<linearGradient id="SVGID_73_" gradientUnits="userSpaceOnUse" x1="78.6047" y1="307.1656" x2="81.7147" y2="307.1656">
			<stop  offset="0" style="stop-color:#FFC709"/>
			<stop  offset="1" style="stop-color:#F58220"/>
		</linearGradient>
		<circle class="st73" cx="80.16" cy="307.17" r="1.34"/>
	</g>
</g>
<g>
	<linearGradient id="SVGID_74_" gradientUnits="userSpaceOnUse" x1="151.3501" y1="307.0415" x2="228.0297" y2="307.0415">
		<stop  offset="0" style="stop-color:#FFC709"/>
		<stop  offset="1" style="stop-color:#F58220"/>
	</linearGradient>
	<path class="st74" d="M165.26,275.7c3.78-3.01,7.92-5.39,12.55-6.85c9.64-3.04,19.06-2.46,28.23,1.76c1.01,0.47,1.84,0.7,3.01,0.28
		c3.08-1.12,5.68,0.05,7.42,2.87c0.45,0.73,1.34,1.18,1.99,1.79c0.67,0.63,1.31,1.31,1.96,1.97c-0.68,0.62-1.35,1.24-2.18,1.99
		c0.66,0.86,1.53,1.92,2.34,3.03c9.85,13.49,9.97,31.11,0.12,44.57c-1.3,1.78-1.45,3.61-1.78,5.54c-0.73,4.27-2.38,8.08-5.74,10.96
		c-4.79,4.11-12.01,4.11-17.19,0c-0.88-0.7-1.67-0.91-2.77-0.81c-5.61,0.51-11.1-0.13-16.41-2.09c-0.88-0.32-1.42-0.28-2.02,0.55
		c-1.2,1.66-2.51,3.24-3.82,4.82c-1.07,1.29-2.22,1.42-3.52,0.4c-3.02-2.37-6.02-4.75-9-7.17c-1.49-1.21-1.57-2.21-0.38-3.74
		c1.19-1.53,2.4-3.04,3.34-4.22c-2.27-3.69-4.76-7-6.47-10.68c-4.81-10.3-4.71-20.78-0.17-31.2c0.38-0.87,0.45-1.53-0.02-2.39
		c-0.9-1.66-1.65-3.4-2.47-5.1c-0.51-1.06-0.3-1.81,0.78-2.4c2.75-1.5,5.45-3.08,8.18-4.61
		C163.53,273.68,163.54,273.68,165.26,275.7z M198.68,278.65c-1.02,3.96-0.3,7.15,1.79,10.04c0.42,0.58,1.13,1.01,1.8,1.33
		c2.76,1.32,5.72,1.63,8.7,1.19c1.96-0.29,3.55-1.34,4.23-3.34c0.65-1.88-0.1-3.3-1.47-4.62c-1.85-1.79-1.77-2.62,0.07-4.38
		c1.65-1.58,1.57-4.1-0.17-5.31c-1.72-1.19-4.2-0.93-5.65,0.59c-1.48,1.56-1.37,3,0.05,5.08c0.77,1.13,1.33,2.46,1.72,3.78
		c0.14,0.46-0.54,1.16-0.85,1.75c-0.46-0.42-1.04-0.77-1.36-1.29c-0.47-0.77-0.6-1.76-1.14-2.46c-2-2.57-2.65-5.18-0.56-7.99
		c-11.62-6.62-29.22-4.76-38.93,4.34c2.75,1.6,6.77,0.33,8.03-2.53c1.06-2.42,1.07-2.43,3.58-1.62c2.93,0.94,5.84,1.95,8.78,2.84
		c1.47,0.44,1.83,1.24,1.42,2.66c-0.64,2.28-1.15,4.61-1.76,6.9c-0.77,2.88-0.38,3.11-3.56,2.78c-0.08-0.01-0.18,0.1-0.29,0.17
		c0.05,0.31,0.08,0.64,0.16,0.95c0.98,4.15,1.97,8.3,2.97,12.44c0.48,1.99,0.35,2.15-1.49,2.83c-1.31,0.49-2.61,1.05-3.8,1.77
		c-1.38,0.84-2.42,2.06-2.37,3.81c0.03,1.45-0.75,1.86-2,1.95c-1.94,0.14-3.88,0.28-5.81,0.54c-1.22,0.16-1.83-0.28-2.06-1.44
		c-0.34-1.77-1.52-2.88-3.11-3.44c-1.26-0.45-2.61-0.69-3.94-0.85c-2.07-0.25-2.26-0.39-2.2-2.52c0.13-4.11,0.27-8.21,0.4-12.32
		c0.02-0.51,0-1.01,0-1.46c-1.28,0.16-2.36,0.29-3.51,0.43c-5.8,12.78-2.31,28.95,6.84,37.84c1.28-1.6,2.58-3.17,3.81-4.8
		c0.19-0.25,0.09-0.78,0-1.15c-0.64-2.51,1.14-4.4,3.71-3.99c0.48,0.08,1.12-0.11,1.52-0.4c1.14-0.83,2.29-0.99,3.45-0.21
		c0.91,0.62,1.55,0.61,2.38-0.21c1.44-1.39,3.28-1.43,4.71-0.29c1.42,1.13,1.79,2.95,0.74,4.65c-0.56,0.9-0.59,1.5,0.22,2.22
		c1.16,1.03,1.26,2.27,0.58,3.67c-0.19,0.39-0.17,1-0.01,1.42c0.93,2.35-0.46,4.45-2.97,4.47c-0.48,0-1.1,0.13-1.39,0.45
		c-1.01,1.11-1.91,2.33-2.96,3.65c5.3,1.89,10.53,2.71,15.99,2.13c-0.03-0.3-0.01-0.42-0.05-0.5c-3.81-7.56-2.89-14.72,1.88-21.51
		c1.37-1.95,1.58-3.96,1.32-6.29c-0.24-2.15-0.29-4.5,0.35-6.52c1.75-5.57,8.57-8.48,15.05-6.76c7.89,2.09,11.66,9.49,7.91,16.23
		c-1.93,3.47-1.28,6.58-0.19,9.94c9.64-12.17,8.96-33.15-3.54-45.02c-1.12,0.51-0.71,1.01-0.05,1.65c3.31,3.25,2.64,8.17-1.39,10.52
		c-2.81,1.64-5.83,1.5-8.83,0.97c-6.52-1.15-9.8-5.28-9.54-11.94c0.05-1.27,0.32-2.6,0.83-3.75c0.72-1.65,2.47-1.82,3.72-0.52
		c0.4,0.42,0.6,1.05,1.03,1.43c0.8,0.71,1.64,1.45,2.6,1.89c0.79,0.36,1.87,0.35,1.65,1.53c-0.23,1.19-1.29,0.92-2.13,0.79
		c-1.75-0.26-3.15-1.08-3.99-2.7C199.39,279.75,199.14,279.4,198.68,278.65z M154.85,281.47c0.97,2.02,1.93,3.88,2.75,5.8
		c0.45,1.04,0.97,1.15,1.99,0.8c2.62-0.9,2.93-0.59,2.91,2.26c-0.03,4.69-0.01,9.38-0.01,14.27c-0.23-0.14-0.15-0.07-0.06-0.04
		c0.26,0.07,0.52,0.13,0.79,0.18c3.3,0.59,6.29,1.65,7.72,5.09c0.09,0.22,0.5,0.44,0.75,0.42c1.18-0.07,2.37-0.18,3.54-0.38
		c0.33-0.06,0.8-0.41,0.88-0.71c0.8-3.24,3.19-4.94,6.03-6.07c1.32-0.52,1.65-1.08,1.28-2.46c-1.09-4.12-2.04-8.27-3.04-12.41
		c-0.56-2.31-0.16-2.76,2.14-2.53c0.58,0.06,1.16,0.08,1.81,0.12c0.63-2.56,1.23-4.99,1.84-7.49c-3.02-0.97-5.86-1.89-8.76-2.83
		c-1.3,3.36-3.77,4.61-6.99,4.94c-3.27,0.34-5.79-0.77-7.56-3.51C160.09,278.5,157.52,279.95,154.85,281.47z M193.24,330.56
		c-0.19,3.25,0.49,6.07,2.13,8.67c0.49,0.77,0.98,1.2,1.96,0.79c3.47-1.44,7.06-2.64,10.42-4.3c3.13-1.54,5.56-4.01,7.48-6.99
		c1.43-2.22,1.53-4.38,0.3-6.82C209.17,327.43,201.64,329.96,193.24,330.56z M207.89,300.76c-6.8,0.39-10.57,5.03-9.32,11.59
		c0.24,1.25,0.07,2.57,0.17,3.85c0.04,0.51,0.14,1.17,0.47,1.48c2.6,2.42,5.58,4.27,9.06,5.12c0.72,0.18,1.68-0.04,2.37-0.39
		c3.45-1.75,5.24-4.84,6.73-8.28c1.98-4.55,0.89-8.88-3.46-11.25C212.06,301.87,209.9,301.45,207.89,300.76z M169.33,325.46
		c-3.21,4.03-6.27,7.89-9.4,11.81c3.1,2.47,6.04,4.81,9.08,7.22c0.71-0.87,1.33-1.64,2.02-2.49c-0.71-0.58-1.42-0.96-1.83-1.55
		c-0.35-0.51-0.35-1.27-0.51-1.92c0.66-0.01,1.4-0.21,1.97,0.01c0.71,0.28,1.28,0.91,1.96,1.43c0.73-0.92,1.35-1.71,2.06-2.59
		c-0.67-0.55-1.38-0.93-1.78-1.52c-0.35-0.52-0.37-1.27-0.53-1.92c0.66-0.02,1.4-0.24,1.97-0.02c0.71,0.28,1.27,0.92,1.96,1.45
		c0.73-0.94,1.38-1.77,2.1-2.69C175.35,330.26,172.41,327.92,169.33,325.46z M205.79,325.08c-2.95-1.83-5.76-3.57-8.63-5.35
		c-1.87,2.3-3.26,4.92-3.59,8.19C197.91,327.74,201.92,326.71,205.79,325.08z M216.43,332.23c-3.33,2.54-6.73,5.13-10.2,7.77
		c1.2,0.47,2.51,0.94,3.79,1.48c0.98,0.41,1.69,0.19,2.4-0.61C214.74,338.32,215.98,335.32,216.43,332.23z M173.84,320.62
		c-0.1,0.17-0.19,0.35-0.29,0.52c2.73,2.18,5.46,4.35,8.18,6.53c0.15-0.15,0.31-0.29,0.46-0.44c-0.19-0.31-0.35-0.64-0.58-0.91
		c-1.37-1.64-1.44-2.63-0.51-4.56c0.23-0.48,0.09-1.14,0.13-1.72c-0.6,0.15-1.33,0.13-1.78,0.48c-1.54,1.18-2.75,1.38-4.48,0.51
		C174.61,320.86,174.22,320.76,173.84,320.62z M208.07,343.63c-3.19-1.59-5.92-3.77-9.25-1.11
		C201.63,344.1,204.57,344.62,208.07,343.63z M169.55,321.83c-0.09,0.13-0.18,0.25-0.27,0.38c4.12,3.27,8.24,6.54,12.36,9.8
		C181.51,330.43,170.75,321.88,169.55,321.83z"/>
	<linearGradient id="SVGID_75_" gradientUnits="userSpaceOnUse" x1="210.9034" y1="275.4613" x2="213.1903" y2="275.4613">
		<stop  offset="0" style="stop-color:#FFC709"/>
		<stop  offset="1" style="stop-color:#F58220"/>
	</linearGradient>
	<path class="st75" d="M213.19,275.5c-0.6,0.42-0.96,0.88-1.28,0.85c-0.36-0.04-0.67-0.52-1-0.81c0.34-0.34,0.63-0.85,1.02-0.96
		C212.18,274.51,212.6,275.04,213.19,275.5z"/>
	<linearGradient id="SVGID_76_" gradientUnits="userSpaceOnUse" x1="201.1106" y1="310.5522" x2="215.2664" y2="310.5522">
		<stop  offset="0" style="stop-color:#2E3192"/>
		<stop  offset="1" style="stop-color:#00AEEF"/>
	</linearGradient>
	<path class="st76" d="M208.23,317.56c-3.86,0.02-7.07-3.11-7.12-6.93c-0.05-3.81,3.12-7.04,6.96-7.09c3.95-0.05,7.22,3.13,7.2,7.01
		C215.25,314.41,212.1,317.54,208.23,317.56z M203.27,310.49c-0.03,2.69,2.22,5,4.89,5.01c2.61,0.02,4.87-2.19,4.95-4.81
		c0.07-2.76-2.05-4.99-4.81-5.05C205.57,305.57,203.3,307.76,203.27,310.49z"/>
	<linearGradient id="SVGID_77_" gradientUnits="userSpaceOnUse" x1="209.2416" y1="309.5251" x2="211.1442" y2="309.5251">
		<stop  offset="0" style="stop-color:#2E3192"/>
		<stop  offset="1" style="stop-color:#00AEEF"/>
	</linearGradient>
	<path class="st77" d="M210.19,308.35c0.46,0.64,0.98,1.04,0.95,1.39c-0.03,0.37-0.6,0.96-0.93,0.95c-0.35-0.01-0.93-0.57-0.97-0.93
		C209.21,309.41,209.73,309,210.19,308.35z"/>
	<linearGradient id="SVGID_78_" gradientUnits="userSpaceOnUse" x1="205.6015" y1="309.1678" x2="207.9391" y2="309.1678">
		<stop  offset="0" style="stop-color:#2E3192"/>
		<stop  offset="1" style="stop-color:#00AEEF"/>
	</linearGradient>
	<path class="st78" d="M207.94,309.18c-0.64,0.46-1.04,0.96-1.39,0.93c-0.36-0.03-0.95-0.58-0.94-0.9c0.01-0.35,0.55-0.94,0.9-0.97
		C206.86,308.2,207.27,308.71,207.94,309.18z"/>
	<linearGradient id="SVGID_79_" gradientUnits="userSpaceOnUse" x1="154.8452" y1="292.8773" x2="186.172" y2="292.8773">
		<stop  offset="0" style="stop-color:#2E3192"/>
		<stop  offset="1" style="stop-color:#00AEEF"/>
	</linearGradient>
	<path class="st79" d="M154.85,281.47c0.97,2.02,1.93,3.88,2.75,5.8c0.45,1.04,0.97,1.15,1.99,0.8c2.62-0.9,2.93-0.59,2.91,2.26
		c-0.03,4.69-0.01,9.38-0.01,14.27c-0.23-0.14-0.15-0.07-0.06-0.04c0.26,0.07,0.52,0.13,0.79,0.18c3.3,0.59,6.29,1.65,7.72,5.09
		c0.09,0.22,0.5,0.44,0.75,0.42c1.18-0.07,2.37-0.18,3.54-0.38c0.33-0.06,0.8-0.41,0.88-0.71c0.8-3.24,3.19-4.94,6.03-6.07
		c1.32-0.52,1.65-1.08,1.28-2.46c-1.09-4.12-2.04-8.27-3.04-12.41c-0.56-2.31-0.16-2.76,2.14-2.53c0.58,0.06,1.16,0.08,1.81,0.12
		c0.63-2.56,1.23-4.99,1.84-7.49c-3.02-0.97-5.86-1.89-8.76-2.83c-1.3,3.36-3.77,4.61-6.99,4.94c-3.27,0.34-5.79-0.77-7.56-3.51
		C160.09,278.5,157.52,279.95,154.85,281.47z"/>
</g>
<g>
	<linearGradient id="SVGID_80_" gradientUnits="userSpaceOnUse" x1="266.6877" y1="307.1656" x2="332.8397" y2="307.1656">
		<stop  offset="0" style="stop-color:#FFC709"/>
		<stop  offset="1" style="stop-color:#F58220"/>
	</linearGradient>
	<path class="st80" d="M327.36,268.57c0,8.32,0,16.62,0,24.95c1.83,0,3.64,0,5.48,0c0,4.55,0,9.08,0,13.63c-1.81,0-3.61,0-5.46,0
		c0,12.88,0,25.73,0,38.61c-18.41,0-36.78,0-55.19,0c0-12.85,0-25.7,0-38.58c-1.85,0-3.66,0-5.5,0c0-4.55,0-9.07,0-13.63
		c1.81,0,3.62,0,5.47,0c0-8.34,0-16.65,0-24.98C290.57,268.57,308.93,268.57,327.36,268.57z M324.57,343.01c0-11.96,0-23.89,0-35.86
		c-4.59,0-9.16,0-13.74,0c0-4.55,0-9.07,0-13.64c4.6,0,9.18,0,13.75,0c0-7.42,0-14.8,0-22.19c-16.55,0-33.08,0-49.61,0
		c0,7.41,0,14.8,0,22.22c11.03,0,22.03,0,33.05,0c0,4.55,0,9.08,0,13.64c-11.04,0-22.05,0-33.06,0c0,11.97,0,23.89,0,35.83
		C291.5,343.01,308.02,343.01,324.57,343.01z M269.43,304.54c11.97,0,23.9,0,35.83,0c0-2.81,0-5.59,0-8.39c-11.95,0-23.88,0-35.83,0
		C269.43,298.96,269.43,301.74,269.43,304.54z M330.09,296.16c-5.53,0-11.02,0-16.5,0c0,2.82,0,5.61,0,8.39c5.52,0,11,0,16.5,0
		C330.09,301.75,330.09,298.97,330.09,296.16z"/>
	<linearGradient id="SVGID_81_" gradientUnits="userSpaceOnUse" x1="288.7479" y1="280.9527" x2="321.8048" y2="280.9527">
		<stop  offset="0" style="stop-color:#FFC709"/>
		<stop  offset="1" style="stop-color:#F58220"/>
	</linearGradient>
	<path class="st81" d="M288.75,285.07c0-2.76,0-5.48,0-8.23c11.02,0,22.02,0,33.06,0c0,2.73,0,5.47,0,8.23
		C310.8,285.07,299.79,285.07,288.75,285.07z M291.5,282.31c9.21,0,18.39,0,27.55,0c0-0.92,0-1.81,0-2.71c-9.19,0-18.37,0-27.55,0
		C291.5,280.51,291.5,281.4,291.5,282.31z"/>
	<linearGradient id="SVGID_82_" gradientUnits="userSpaceOnUse" x1="277.7142" y1="280.9631" x2="285.9421" y2="280.9631">
		<stop  offset="0" style="stop-color:#FFC709"/>
		<stop  offset="1" style="stop-color:#F58220"/>
	</linearGradient>
	<path class="st82" d="M285.94,285.08c-2.75,0-5.48,0-8.23,0c0-2.74,0-5.47,0-8.23c2.73,0,5.46,0,8.23,0
		C285.94,279.57,285.94,282.31,285.94,285.08z M280.47,282.31c0.93,0,1.82,0,2.71,0c0-0.92,0-1.82,0-2.71c-0.92,0-1.81,0-2.71,0
		C280.47,280.5,280.47,281.39,280.47,282.31z"/>
	<linearGradient id="SVGID_83_" gradientUnits="userSpaceOnUse" x1="317.4297" y1="300.3566" x2="326.2339" y2="300.3566">
		<stop  offset="0" style="stop-color:#FFC709"/>
		<stop  offset="1" style="stop-color:#F58220"/>
	</linearGradient>
	<path class="st83" d="M321.85,297.08c1.51,1.63,2.92,3.16,4.38,4.74c-0.71,0.63-1.35,1.2-2.03,1.81c-0.79-0.86-1.57-1.7-2.37-2.57
		c-0.79,0.85-1.56,1.69-2.37,2.56c-0.67-0.6-1.32-1.17-2.04-1.81C318.91,300.24,320.34,298.7,321.85,297.08z"/>
	<g>
		<linearGradient id="SVGID_84_" gradientUnits="userSpaceOnUse" x1="277.7443" y1="325.2562" x2="321.8422" y2="325.2562">
			<stop  offset="0" style="stop-color:#2E3192"/>
			<stop  offset="1" style="stop-color:#00AEEF"/>
		</linearGradient>
		<path class="st84" d="M305.97,326.81c0-4.93,0.03-9.77-0.02-14.61c-0.01-1.18,0.6-1.96,1.92-2.37c1.13-0.35,2.34-0.65,3.54-0.77
			c2.67-0.26,5.34-0.21,7.9,0.53c1.94,0.56,2.51,1.23,2.51,2.84c0,8.62-0.02,17.24,0.02,25.86c0,1.17-0.58,1.97-1.93,2.37
			c-1.14,0.34-2.34,0.66-3.55,0.76c-3.27,0.27-6.51,0.24-9.52-1.18c-2.11,1.05-4.53,1.3-7.03,1.3c-2.47,0-4.87-0.22-6.99-1.27
			c-4.02,1.6-8.18,1.67-12.39,0.64c-2.43-0.6-2.7-1.48-2.68-2.88c0.05-5.22,0.05-10.43,0-15.65c-0.01-1.14,0.62-1.87,1.88-2.33
			c2.4-0.87,4.96-1.08,7.54-0.85c1.5,0.13,2.99,0.44,4.43,0.82c1.42,0.38,2.13,1.2,2.05,2.45c-0.09,1.43-0.02,2.87-0.02,4.35
			C297.74,325.63,301.81,325.62,305.97,326.81z M320.05,311.61c-1.46-1.89-11.5-1.73-12.29,0.07
			C309.37,313.52,319.01,313.38,320.05,311.61z M279.51,321.84c2.1,1.88,10.66,1.84,12.33-0.03
			C290.51,320.05,281.03,320.01,279.51,321.84z M305.94,328.65c-1.14-1.82-11.06-1.84-12.3-0.01
			C294.79,330.46,304.71,330.48,305.94,328.65z M307.79,313.49c-0.14,1.85-0.46,1.93,2.11,2.52c2.64,0.6,5.36,0.6,7.99,0
			c2.45-0.56,2.29-0.65,2.08-2.51C315.95,314.61,311.92,314.62,307.79,313.49z M307.8,320.3c-0.17,1.86-0.42,1.89,2.19,2.55
			c0.61,0.15,1.27,0.22,1.91,0.28c2.35,0.19,4.69,0.14,6.91-0.56c0.5-0.16,1.01-0.54,1.21-0.92c0.21-0.38,0.05-0.88,0.05-1.37
			C315.93,321.43,311.86,321.43,307.8,320.3z M291.77,327.06c-1.98,0.68-4.03,0.96-6.12,0.84c-2.04-0.11-4.06-0.38-6.09-0.59
			c-0.16,1.68,0.08,1.95,2.37,2.37c2.51,0.46,5.03,0.46,7.54,0c2.24-0.41,2.5-0.7,2.38-2.46
			C291.85,327.2,291.83,327.18,291.77,327.06z M319.97,327.13c-5.04,1.08-6.13,1.08-12.19,0.01c-0.12,1.81-0.48,1.9,2.13,2.49
			c2.67,0.6,5.4,0.56,8.09-0.03C320.09,329.14,320.31,328.83,319.97,327.13z M279.59,333.91c-0.22,1.83,0.01,2.22,2.23,2.53
			c1.8,0.26,3.68,0.36,5.52,0.3c1.26-0.04,2.51-0.43,3.75-0.72c0.57-0.13,0.88-0.48,0.8-0.99c-0.05-0.36-0.01-0.73-0.01-1.14
			C287.73,335.03,283.7,335.04,279.59,333.91z M293.69,333.91c-0.22,1.83,0.01,2.22,2.23,2.54c1.81,0.26,3.68,0.36,5.52,0.3
			c1.26-0.04,2.51-0.43,3.75-0.72c0.57-0.13,0.88-0.48,0.8-0.99c-0.05-0.36-0.01-0.73-0.01-1.14
			C301.83,335.03,297.8,335.04,293.69,333.91z M320.02,333.9c-4.11,1.14-8.17,1.13-12.23,0.01c-0.22,1.85,0.04,2.16,2.32,2.58
			c2.51,0.46,5.03,0.46,7.54,0.01C319.94,336.08,320.18,335.82,320.02,333.9z M307.78,316.88c-0.2,1.92-0.07,2.11,2.31,2.56
			c1.13,0.21,2.3,0.35,3.46,0.37c1.95,0.03,3.91-0.09,5.69-0.8c0.35-0.14,0.71-0.45,0.8-0.74c0.13-0.44,0.04-0.92,0.04-1.41
			C315.92,318.04,311.89,318.05,307.78,316.88z M279.52,323.67c0,0.29,0,0.49,0,0.69c0,1.22,0.04,1.4,1.58,1.69
			c1.59,0.3,3.26,0.58,4.88,0.53c1.71-0.05,3.42-0.47,5.1-0.8c0.31-0.06,0.68-0.41,0.75-0.67c0.12-0.45,0.03-0.93,0.03-1.45
			C287.72,324.86,283.67,324.86,279.52,323.67z M307.79,323.69c-0.11,1.85-0.53,1.93,2.19,2.52c1.17,0.25,2.43,0.39,3.65,0.4
			c1.92,0.02,3.84-0.1,5.59-0.79c0.35-0.14,0.72-0.45,0.81-0.73c0.14-0.44,0.04-0.92,0.04-1.43
			C315.9,324.86,311.84,324.85,307.79,323.69z M291.84,330.71c-2.11,0.22-4.15,0.6-6.19,0.6c-2.04,0-4.07-0.39-6.1-0.61
			c-0.18,1.7-0.04,1.87,2.33,2.35c2.53,0.51,5.08,0.51,7.61,0C291.87,332.59,292,332.42,291.84,330.71z M293.67,330.49
			c-0.18,1.84-0.01,2.1,1.94,2.51c2.82,0.59,5.65,0.59,8.46-0.03c1.9-0.42,2.22-0.91,1.75-2.46
			C301.57,331.66,298.08,331.66,293.67,330.49z M307.77,330.49c-0.18,1.94-0.06,2.1,2.33,2.57c2.53,0.51,5.09,0.54,7.61-0.01
			c2.93-0.64,2.36-0.72,2.31-2.56C315.96,331.66,311.9,331.66,307.77,330.49z M279.52,337.28c0,0.29,0,0.49,0,0.69
			c-0.01,1.23,0.04,1.41,1.57,1.7c1.59,0.3,3.26,0.58,4.88,0.53c1.71-0.05,3.41-0.48,5.11-0.78c0.6-0.11,0.87-0.47,0.8-0.98
			c-0.05-0.37-0.01-0.74-0.01-1.16C287.73,338.46,283.68,338.47,279.52,337.28z M293.62,337.28c0,0.29,0,0.49,0,0.69
			c-0.01,1.23,0.04,1.41,1.57,1.7c1.59,0.3,3.26,0.58,4.88,0.53c1.71-0.05,3.41-0.48,5.11-0.78c0.6-0.11,0.87-0.47,0.8-0.98
			c-0.05-0.37-0.01-0.74-0.01-1.16C301.83,338.46,297.78,338.47,293.62,337.28z M307.77,337.29c-0.17,1.97-0.07,2.1,2.34,2.58
			c2.56,0.51,5.14,0.5,7.7-0.03c2.19-0.45,2.36-0.64,2.24-2.37c0-0.05-0.03-0.09-0.06-0.16
			C315.95,338.46,311.89,338.47,307.77,337.29z"/>
	</g>
</g>
</svg>
